transcript
# vsim -c top 
# Start time: 19:16:47 on Sep 13,2024
# ** Note: (vsim-3813) Design is being optimized due to module recompilation...
# ** Warning: (vopt-8637) alu_ip_monitor.sv(35): A modport ('MON') should not be used in a hierarchical path.
# ** Warning: (vopt-8637) alu_ip_monitor.sv(35): A modport ('MON') should not be used in a hierarchical path.
# ** Warning: (vopt-8637) alu_ip_monitor.sv(39): A modport ('MON') should not be used in a hierarchical path.
# ** Warning: (vopt-8637) alu_ip_monitor.sv(39): A modport ('MON') should not be used in a hierarchical path.
# ** Warning: (vopt-8637) alu_ip_monitor.sv(40): A modport ('MON') should not be used in a hierarchical path.
# ** Warning: (vopt-8637) alu_ip_monitor.sv(40): A modport ('MON') should not be used in a hierarchical path.
# ** Warning: (vopt-8637) alu_ip_monitor.sv(41): A modport ('MON') should not be used in a hierarchical path.
# ** Warning: (vopt-8637) alu_ip_monitor.sv(41): A modport ('MON') should not be used in a hierarchical path.
# ** Warning: (vopt-8637) alu_ip_monitor.sv(42): A modport ('MON') should not be used in a hierarchical path.
# ** Warning: (vopt-8637) alu_ip_monitor.sv(42): A modport ('MON') should not be used in a hierarchical path.
# ** Warning: (vopt-8637) alu_ip_monitor.sv(43): A modport ('MON') should not be used in a hierarchical path.
# ** Warning: (vopt-8637) alu_ip_monitor.sv(43): A modport ('MON') should not be used in a hierarchical path.
# ** Warning: (vopt-8637) alu_ip_monitor.sv(44): A modport ('MON') should not be used in a hierarchical path.
# ** Warning: (vopt-8637) alu_ip_monitor.sv(44): A modport ('MON') should not be used in a hierarchical path.
# ** Warning: (vopt-8637) alu_ip_monitor.sv(45): A modport ('MON') should not be used in a hierarchical path.
# ** Warning: (vopt-8637) alu_ip_monitor.sv(45): A modport ('MON') should not be used in a hierarchical path.
# ** Warning: (vopt-8637) alu_op_monitor.sv(35): A modport ('MON') should not be used in a hierarchical path.
# ** Warning: (vopt-8637) alu_op_monitor.sv(35): A modport ('MON') should not be used in a hierarchical path.
# ** Warning: (vopt-8637) alu_op_monitor.sv(39): A modport ('MON') should not be used in a hierarchical path.
# ** Warning: (vopt-8637) alu_op_monitor.sv(39): A modport ('MON') should not be used in a hierarchical path.
# ** Warning: (vopt-8637) alu_op_monitor.sv(40): A modport ('MON') should not be used in a hierarchical path.
# ** Warning: (vopt-8637) alu_op_monitor.sv(40): A modport ('MON') should not be used in a hierarchical path.
# ** Warning: (vopt-8637) alu_op_monitor.sv(41): A modport ('MON') should not be used in a hierarchical path.
# ** Warning: (vopt-8637) alu_op_monitor.sv(41): A modport ('MON') should not be used in a hierarchical path.
# ** Warning: (vopt-8637) alu_op_monitor.sv(42): A modport ('MON') should not be used in a hierarchical path.
# ** Warning: (vopt-8637) alu_op_monitor.sv(42): A modport ('MON') should not be used in a hierarchical path.
# ** Warning: (vopt-8637) alu_op_monitor.sv(43): A modport ('MON') should not be used in a hierarchical path.
# ** Warning: (vopt-8637) alu_op_monitor.sv(43): A modport ('MON') should not be used in a hierarchical path.
# ** Warning: (vopt-8637) alu_op_monitor.sv(44): A modport ('MON') should not be used in a hierarchical path.
# ** Warning: (vopt-8637) alu_op_monitor.sv(44): A modport ('MON') should not be used in a hierarchical path.
# ** Warning: (vopt-8637) alu_op_monitor.sv(45): A modport ('MON') should not be used in a hierarchical path.
# ** Warning: (vopt-8637) alu_op_monitor.sv(45): A modport ('MON') should not be used in a hierarchical path.
# ** Warning: alu_top.sv(28): (vopt-2241) Connection width does not match width of port 'RES'. The port definition is at: alu_design.v(1).
# //  Questa Sim
# //  Version 10.6c linux Jul 25 2017
# //
# //  Copyright 1991-2017 Mentor Graphics Corporation
# //  All Rights Reserved.
# //
# //  QuestaSim and its associated documentation contain trade
# //  secrets and commercial or financial information that are the property of
# //  Mentor Graphics Corporation and are privileged, confidential,
# //  and exempt from disclosure under the Freedom of Information Act,
# //  5 U.S.C. Section 552. Furthermore, this information
# //  is prohibited from disclosure under the Trade Secrets Act,
# //  18 U.S.C. Section 1905.
# //
# Loading sv_std.std
# Loading mtiUvm.uvm_pkg
# Loading work.alu_top_sv_unit(fast)
# Loading work.top(fast)
# Loading mtiUvm.questa_uvm_pkg(fast)
# Loading work.alu_if(fast)
# ** Warning: (vsim-8637) alu_ip_monitor.sv(35): A modport ('MON') should not be used in a hierarchical path.
#    Time: 0 ns  Iteration: 0  Region: /alu_top_sv_unit File: alu_package.sv
# ** Warning: (vsim-8637) alu_op_monitor.sv(35): A modport ('MON') should not be used in a hierarchical path.
#    Time: 0 ns  Iteration: 0  Region: /alu_top_sv_unit File: alu_package.sv
# ** Warning: (vsim-8637) alu_driver.sv(46): A modport ('DRV') should not be used in a hierarchical path.
#    Time: 0 ns  Iteration: 0  Region: /alu_top_sv_unit::alu_drv File: alu_package.sv
# ** Warning: (vsim-8637) alu_driver.sv(48): A modport ('DRV') should not be used in a hierarchical path.
#    Time: 0 ns  Iteration: 0  Region: /alu_top_sv_unit::alu_drv File: alu_package.sv
# ** Warning: (vsim-8637) alu_driver.sv(49): A modport ('DRV') should not be used in a hierarchical path.
#    Time: 0 ns  Iteration: 0  Region: /alu_top_sv_unit::alu_drv File: alu_package.sv
# ** Warning: (vsim-8637) alu_driver.sv(50): A modport ('DRV') should not be used in a hierarchical path.
#    Time: 0 ns  Iteration: 0  Region: /alu_top_sv_unit::alu_drv File: alu_package.sv
# ** Warning: (vsim-8637) alu_driver.sv(51): A modport ('DRV') should not be used in a hierarchical path.
#    Time: 0 ns  Iteration: 0  Region: /alu_top_sv_unit::alu_drv File: alu_package.sv
# ** Warning: (vsim-8637) alu_driver.sv(52): A modport ('DRV') should not be used in a hierarchical path.
#    Time: 0 ns  Iteration: 0  Region: /alu_top_sv_unit::alu_drv File: alu_package.sv
# ** Warning: (vsim-8637) alu_driver.sv(53): A modport ('DRV') should not be used in a hierarchical path.
#    Time: 0 ns  Iteration: 0  Region: /alu_top_sv_unit::alu_drv File: alu_package.sv
# ** Warning: (vsim-8637) alu_driver.sv(54): A modport ('DRV') should not be used in a hierarchical path.
#    Time: 0 ns  Iteration: 0  Region: /alu_top_sv_unit::alu_drv File: alu_package.sv
# ** Warning: (vsim-8637) alu_driver.sv(55): A modport ('DRV') should not be used in a hierarchical path.
#    Time: 0 ns  Iteration: 0  Region: /alu_top_sv_unit::alu_drv File: alu_package.sv
# ** Warning: (vsim-8637) alu_driver.sv(55): A modport ('DRV') should not be used in a hierarchical path.
#    Time: 0 ns  Iteration: 0  Region: /alu_top_sv_unit::alu_drv File: alu_package.sv
# ** Warning: (vsim-8637) alu_driver.sv(54): A modport ('DRV') should not be used in a hierarchical path.
#    Time: 0 ns  Iteration: 0  Region: /alu_top_sv_unit::alu_drv File: alu_package.sv
# ** Warning: (vsim-8637) alu_driver.sv(53): A modport ('DRV') should not be used in a hierarchical path.
#    Time: 0 ns  Iteration: 0  Region: /alu_top_sv_unit::alu_drv File: alu_package.sv
# ** Warning: (vsim-8637) alu_driver.sv(52): A modport ('DRV') should not be used in a hierarchical path.
#    Time: 0 ns  Iteration: 0  Region: /alu_top_sv_unit::alu_drv File: alu_package.sv
# ** Warning: (vsim-8637) alu_driver.sv(51): A modport ('DRV') should not be used in a hierarchical path.
#    Time: 0 ns  Iteration: 0  Region: /alu_top_sv_unit::alu_drv File: alu_package.sv
# ** Warning: (vsim-8637) alu_driver.sv(50): A modport ('DRV') should not be used in a hierarchical path.
#    Time: 0 ns  Iteration: 0  Region: /alu_top_sv_unit::alu_drv File: alu_package.sv
# ** Warning: (vsim-8637) alu_driver.sv(49): A modport ('DRV') should not be used in a hierarchical path.
#    Time: 0 ns  Iteration: 0  Region: /alu_top_sv_unit::alu_drv File: alu_package.sv
# Loading /tools/mentor/questasim_10.6c/questasim/uvm-1.1d/linux/uvm_dpi.so
# ----------------------------------------------------------------
# UVM-1.1d
# (C) 2007-2013 Mentor Graphics Corporation
# (C) 2007-2013 Cadence Design Systems, Inc.
# (C) 2006-2013 Synopsys, Inc.
# (C) 2011-2013 Cypress Semiconductor Corp.
# ----------------------------------------------------------------
# 
#   ***********       IMPORTANT RELEASE NOTES         ************
# 
#   You are using a version of the UVM library that has been compiled
#   with `UVM_NO_DEPRECATED undefined.
#   See http://www.eda.org/svdb/view.php?id=3313 for more details.
# 
#   You are using a version of the UVM library that has been compiled
#   with `UVM_OBJECT_MUST_HAVE_CONSTRUCTOR undefined.
#   See http://www.eda.org/svdb/view.php?id=3770 for more details.
# 
#       (Specify +UVM_NO_RELNOTES to turn off this notice)
# 
# UVM_INFO verilog_src/questa_uvm_pkg-1.2/src/questa_uvm_pkg.sv(215) @ 0: reporter [Questa UVM] QUESTA_UVM-1.2.3
# UVM_INFO verilog_src/questa_uvm_pkg-1.2/src/questa_uvm_pkg.sv(217) @ 0: reporter [Questa UVM]  questa_uvm::init(+struct)
# UVM_INFO @ 0: reporter [RNTST] Running test alu_regression...
# -----------------------------------------------------------------
# Name                         Type                     Size  Value
# -----------------------------------------------------------------
# uvm_test_top                 alu_regression           -     @471 
#   env                        alu_env                  -     @478 
#     act_h                    alu_agent_active         -     @585 
#       drv                    alu_drv                  -     @762 
#         rsp_port             uvm_analysis_port        -     @777 
#         seq_item_port        uvm_seq_item_pull_port   -     @769 
#       mon_ip                 alu_ip_monitor           -     @638 
#         item_collected_port  uvm_analysis_port        -     @645 
#       sqr_h                  alu_seqr                 -     @653 
#         rsp_export           uvm_analysis_export      -     @660 
#         seq_item_export      uvm_seq_item_pull_imp    -     @754 
#         arbitration_queue    array                    0     -    
#         lock_queue           array                    0     -    
#         num_last_reqs        integral                 32    'd1  
#         num_last_rsps        integral                 32    'd1  
#     cov_h                    alu_cov                  -     @606 
#       analysis_imp           uvm_analysis_imp         -     @613 
#       mon_ip_imp             uvm_analysis_imp_mon_ip  -     @621 
#       mon_op_imp             uvm_analysis_imp_mon_op  -     @629 
#     pass_h                   alu_agent_passive        -     @592 
#       mon_op                 alu_op_monitor           -     @797 
#         item_collected_port  uvm_analysis_port        -     @804 
#     scb_h                    alu_scb                  -     @599 
#       ip_mon_port            uvm_analysis_imp_ip_mon  -     @817 
#       op_mon_port            uvm_analysis_imp_op_mon  -     @825 
# -----------------------------------------------------------------
# UVM_INFO alu_driver.sv(69) @ 5: uvm_test_top.env.act_h.drv [DRIVER]  [5] mode = 1 ip_valid = 1  cmd =  0  opa = 146 opb =  17 delay =  0  ce = 1 cin = 1
# UVM_INFO alu_ip_monitor.sv(47) @ 15: uvm_test_top.env.act_h.mon_ip [IP MON] [15]  mode = 1 ip_valid = 1  cmd =  0  opa = 146 opb =  17  ce = 1 cin = 1
# UVM_INFO alu_driver.sv(69) @ 25: uvm_test_top.env.act_h.drv [DRIVER]  [25] mode = 1 ip_valid = 3  cmd =  0  opa = 146 opb =  17 delay =  0  ce = 1 cin = 1
# UVM_INFO alu_op_monitor.sv(48) @ 25: uvm_test_top.env.pass_h.mon_op [OUTPUT MONITOR]  [25] res = 146 oflow = 0  cout = 0 g = 0  l = 0 e = 0 err =0
# UVM_INFO alu_ip_monitor.sv(47) @ 35: uvm_test_top.env.act_h.mon_ip [IP MON] [35]  mode = 1 ip_valid = 3  cmd =  0  opa = 146 opb =  17  ce = 1 cin = 1
# UVM_INFO alu_op_monitor.sv(48) @ 45: uvm_test_top.env.pass_h.mon_op [OUTPUT MONITOR]  [45] res = 163 oflow = 0  cout = 0 g = 0  l = 0 e = 0 err =0
# UVM_INFO alu_scoreboard.sv(66) @ 45: reporter [SEQUENCE_MATCHED] Matched
# UVM_INFO alu_scoreboard.sv(67) @ 45: reporter [MATCH] match count = 1
# UVM_INFO alu_scoreboard.sv(208) @ 45: uvm_test_top.env.scb_h [EXPECTED] [45] res=163,cout=0,oflow=0,g=0,l=0,e=0,err=0
# UVM_INFO alu_scoreboard.sv(209) @ 45: uvm_test_top.env.scb_h [ACTUAL] [45] res=163,cout=0,oflow=0,g=0,l=0,e=0,err=0
# UVM_INFO alu_driver.sv(69) @ 55: uvm_test_top.env.act_h.drv [DRIVER]  [55] mode = 1 ip_valid = 3  cmd =  1  opa = 255 opb =  16 delay =  4  ce = 1 cin = 0
# UVM_INFO alu_ip_monitor.sv(47) @ 55: uvm_test_top.env.act_h.mon_ip [IP MON] [55]  mode = 1 ip_valid = 3  cmd =  0  opa = 146 opb =  17  ce = 1 cin = 1
# UVM_INFO alu_op_monitor.sv(48) @ 65: uvm_test_top.env.pass_h.mon_op [OUTPUT MONITOR]  [65] res = 163 oflow = 0  cout = 0 g = 0  l = 0 e = 0 err =0
# UVM_INFO alu_scoreboard.sv(66) @ 65: reporter [SEQUENCE_MATCHED] Matched
# UVM_INFO alu_scoreboard.sv(67) @ 65: reporter [MATCH] match count = 2
# UVM_INFO alu_scoreboard.sv(208) @ 65: uvm_test_top.env.scb_h [EXPECTED] [65] res=163,cout=0,oflow=0,g=0,l=0,e=0,err=0
# UVM_INFO alu_scoreboard.sv(209) @ 65: uvm_test_top.env.scb_h [ACTUAL] [65] res=163,cout=0,oflow=0,g=0,l=0,e=0,err=0
# UVM_INFO alu_ip_monitor.sv(47) @ 75: uvm_test_top.env.act_h.mon_ip [IP MON] [75]  mode = 1 ip_valid = 3  cmd =  1  opa = 255 opb =  16  ce = 1 cin = 0
# UVM_INFO alu_driver.sv(69) @ 85: uvm_test_top.env.act_h.drv [DRIVER]  [85] mode = 1 ip_valid = 3  cmd =  2  opa =  19 opb = 253 delay =  5  ce = 1 cin = 1
# UVM_INFO alu_op_monitor.sv(48) @ 85: uvm_test_top.env.pass_h.mon_op [OUTPUT MONITOR]  [85] res = 239 oflow = 0  cout = 0 g = 0  l = 0 e = 0 err =0
# UVM_INFO alu_scoreboard.sv(66) @ 85: reporter [SEQUENCE_MATCHED] Matched
# UVM_INFO alu_scoreboard.sv(67) @ 85: reporter [MATCH] match count = 3
# UVM_INFO alu_scoreboard.sv(208) @ 85: uvm_test_top.env.scb_h [EXPECTED] [85] res=239,cout=0,oflow=0,g=0,l=0,e=0,err=0
# UVM_INFO alu_scoreboard.sv(209) @ 85: uvm_test_top.env.scb_h [ACTUAL] [85] res=239,cout=0,oflow=0,g=0,l=0,e=0,err=0
# UVM_INFO alu_ip_monitor.sv(47) @ 95: uvm_test_top.env.act_h.mon_ip [IP MON] [95]  mode = 1 ip_valid = 3  cmd =  2  opa =  19 opb = 253  ce = 1 cin = 1
# UVM_INFO alu_op_monitor.sv(48) @ 105: uvm_test_top.env.pass_h.mon_op [OUTPUT MONITOR]  [105] res = 273 oflow = 0  cout = 1 g = 0  l = 0 e = 0 err =0
# UVM_INFO alu_scoreboard.sv(66) @ 105: reporter [SEQUENCE_MATCHED] Matched
# UVM_INFO alu_scoreboard.sv(67) @ 105: reporter [MATCH] match count = 4
# UVM_INFO alu_scoreboard.sv(208) @ 105: uvm_test_top.env.scb_h [EXPECTED] [105] res=273,cout=1,oflow=0,g=0,l=0,e=0,err=0
# UVM_INFO alu_scoreboard.sv(209) @ 105: uvm_test_top.env.scb_h [ACTUAL] [105] res=273,cout=1,oflow=0,g=0,l=0,e=0,err=0
# UVM_INFO alu_driver.sv(69) @ 115: uvm_test_top.env.act_h.drv [DRIVER]  [115] mode = 1 ip_valid = 1  cmd =  3  opa = 249 opb = 192 delay =  5  ce = 1 cin = 1
# UVM_INFO alu_ip_monitor.sv(47) @ 115: uvm_test_top.env.act_h.mon_ip [IP MON] [115]  mode = 1 ip_valid = 3  cmd =  2  opa =  19 opb = 253  ce = 1 cin = 1
# UVM_INFO alu_op_monitor.sv(48) @ 125: uvm_test_top.env.pass_h.mon_op [OUTPUT MONITOR]  [125] res = 273 oflow = 0  cout = 1 g = 0  l = 0 e = 0 err =0
# UVM_INFO alu_scoreboard.sv(66) @ 125: reporter [SEQUENCE_MATCHED] Matched
# UVM_INFO alu_scoreboard.sv(67) @ 125: reporter [MATCH] match count = 5
# UVM_INFO alu_scoreboard.sv(208) @ 125: uvm_test_top.env.scb_h [EXPECTED] [125] res=273,cout=1,oflow=0,g=0,l=0,e=0,err=0
# UVM_INFO alu_scoreboard.sv(209) @ 125: uvm_test_top.env.scb_h [ACTUAL] [125] res=273,cout=1,oflow=0,g=0,l=0,e=0,err=0
# UVM_INFO alu_driver.sv(69) @ 135: uvm_test_top.env.act_h.drv [DRIVER]  [135] mode = 1 ip_valid = 1  cmd =  3  opa = 249 opb = 192 delay =  5  ce = 1 cin = 1
# UVM_INFO alu_ip_monitor.sv(47) @ 135: uvm_test_top.env.act_h.mon_ip [IP MON] [135]  mode = 1 ip_valid = 1  cmd =  3  opa = 249 opb = 192  ce = 1 cin = 1
# UVM_INFO alu_op_monitor.sv(48) @ 145: uvm_test_top.env.pass_h.mon_op [OUTPUT MONITOR]  [145] res = 507 oflow = 1  cout = 0 g = 0  l = 0 e = 0 err =0
# UVM_INFO alu_driver.sv(69) @ 155: uvm_test_top.env.act_h.drv [DRIVER]  [155] mode = 1 ip_valid = 1  cmd =  3  opa = 249 opb = 192 delay =  5  ce = 1 cin = 1
# UVM_INFO alu_ip_monitor.sv(47) @ 155: uvm_test_top.env.act_h.mon_ip [IP MON] [155]  mode = 1 ip_valid = 1  cmd =  3  opa = 249 opb = 192  ce = 1 cin = 1
# UVM_INFO alu_op_monitor.sv(48) @ 165: uvm_test_top.env.pass_h.mon_op [OUTPUT MONITOR]  [165] res = 507 oflow = 1  cout = 0 g = 0  l = 0 e = 0 err =0
# UVM_INFO alu_driver.sv(69) @ 175: uvm_test_top.env.act_h.drv [DRIVER]  [175] mode = 1 ip_valid = 1  cmd =  3  opa = 249 opb = 192 delay =  5  ce = 1 cin = 1
# UVM_INFO alu_ip_monitor.sv(47) @ 175: uvm_test_top.env.act_h.mon_ip [IP MON] [175]  mode = 1 ip_valid = 1  cmd =  3  opa = 249 opb = 192  ce = 1 cin = 1
# UVM_INFO alu_op_monitor.sv(48) @ 185: uvm_test_top.env.pass_h.mon_op [OUTPUT MONITOR]  [185] res = 507 oflow = 1  cout = 0 g = 0  l = 0 e = 0 err =0
# UVM_INFO alu_driver.sv(69) @ 195: uvm_test_top.env.act_h.drv [DRIVER]  [195] mode = 1 ip_valid = 1  cmd =  3  opa = 249 opb = 192 delay =  5  ce = 1 cin = 1
# UVM_INFO alu_ip_monitor.sv(47) @ 195: uvm_test_top.env.act_h.mon_ip [IP MON] [195]  mode = 1 ip_valid = 1  cmd =  3  opa = 249 opb = 192  ce = 1 cin = 1
# UVM_INFO alu_op_monitor.sv(48) @ 205: uvm_test_top.env.pass_h.mon_op [OUTPUT MONITOR]  [205] res = 507 oflow = 1  cout = 0 g = 0  l = 0 e = 0 err =0
# UVM_INFO alu_driver.sv(69) @ 215: uvm_test_top.env.act_h.drv [DRIVER]  [215] mode = 1 ip_valid = 1  cmd =  3  opa = 249 opb = 192 delay =  5  ce = 1 cin = 1
# UVM_INFO alu_ip_monitor.sv(47) @ 215: uvm_test_top.env.act_h.mon_ip [IP MON] [215]  mode = 1 ip_valid = 1  cmd =  3  opa = 249 opb = 192  ce = 1 cin = 1
# UVM_INFO alu_op_monitor.sv(48) @ 225: uvm_test_top.env.pass_h.mon_op [OUTPUT MONITOR]  [225] res = 507 oflow = 1  cout = 0 g = 0  l = 0 e = 0 err =0
# UVM_INFO alu_driver.sv(69) @ 235: uvm_test_top.env.act_h.drv [DRIVER]  [235] mode = 1 ip_valid = 3  cmd =  3  opa = 249 opb = 192 delay =  5  ce = 1 cin = 1
# UVM_INFO alu_ip_monitor.sv(47) @ 235: uvm_test_top.env.act_h.mon_ip [IP MON] [235]  mode = 1 ip_valid = 1  cmd =  3  opa = 249 opb = 192  ce = 1 cin = 1
# UVM_INFO alu_op_monitor.sv(48) @ 245: uvm_test_top.env.pass_h.mon_op [OUTPUT MONITOR]  [245] res = 507 oflow = 1  cout = 0 g = 0  l = 0 e = 0 err =0
# UVM_INFO alu_ip_monitor.sv(47) @ 255: uvm_test_top.env.act_h.mon_ip [IP MON] [255]  mode = 1 ip_valid = 3  cmd =  3  opa = 249 opb = 192  ce = 1 cin = 1
# UVM_INFO alu_driver.sv(69) @ 265: uvm_test_top.env.act_h.drv [DRIVER]  [265] mode = 1 ip_valid = 0  cmd =  4  opa = 165 opb = 218 delay =  6  ce = 1 cin = 0
# UVM_INFO alu_op_monitor.sv(48) @ 265: uvm_test_top.env.pass_h.mon_op [OUTPUT MONITOR]  [265] res =  56 oflow = 0  cout = 0 g = 0  l = 0 e = 0 err =0
# UVM_INFO alu_scoreboard.sv(66) @ 265: reporter [SEQUENCE_MATCHED] Matched
# UVM_INFO alu_scoreboard.sv(67) @ 265: reporter [MATCH] match count = 6
# UVM_INFO alu_scoreboard.sv(208) @ 265: uvm_test_top.env.scb_h [EXPECTED] [265] res= 56,cout=0,oflow=0,g=0,l=0,e=0,err=0
# UVM_INFO alu_scoreboard.sv(209) @ 265: uvm_test_top.env.scb_h [ACTUAL] [265] res= 56,cout=0,oflow=0,g=0,l=0,e=0,err=0
# UVM_INFO alu_ip_monitor.sv(47) @ 275: uvm_test_top.env.act_h.mon_ip [IP MON] [275]  mode = 1 ip_valid = 0  cmd =  4  opa = 165 opb = 218  ce = 1 cin = 0
# UVM_INFO alu_op_monitor.sv(48) @ 285: uvm_test_top.env.pass_h.mon_op [OUTPUT MONITOR]  [285] res =   0 oflow = 0  cout = 0 g = 0  l = 0 e = 0 err =0
# UVM_ERROR alu_scoreboard.sv(127) @ 285: uvm_test_top.env.scb_h [scoreboard] ERROR
# UVM_INFO alu_driver.sv(69) @ 295: uvm_test_top.env.act_h.drv [DRIVER]  [295] mode = 1 ip_valid = 3  cmd =  5  opa =  22 opb = 171 delay =  7  ce = 1 cin = 1
# UVM_INFO alu_ip_monitor.sv(47) @ 295: uvm_test_top.env.act_h.mon_ip [IP MON] [295]  mode = 1 ip_valid = 0  cmd =  4  opa = 165 opb = 218  ce = 1 cin = 0
# UVM_INFO alu_op_monitor.sv(48) @ 305: uvm_test_top.env.pass_h.mon_op [OUTPUT MONITOR]  [305] res =   0 oflow = 0  cout = 0 g = 0  l = 0 e = 0 err =0
# UVM_ERROR alu_scoreboard.sv(127) @ 305: uvm_test_top.env.scb_h [scoreboard] ERROR
# UVM_INFO alu_ip_monitor.sv(47) @ 315: uvm_test_top.env.act_h.mon_ip [IP MON] [315]  mode = 1 ip_valid = 3  cmd =  5  opa =  22 opb = 171  ce = 1 cin = 1
# UVM_INFO alu_driver.sv(69) @ 325: uvm_test_top.env.act_h.drv [DRIVER]  [325] mode = 1 ip_valid = 3  cmd =  6  opa =  20 opb = 190 delay =  3  ce = 1 cin = 1
# UVM_INFO alu_op_monitor.sv(48) @ 325: uvm_test_top.env.pass_h.mon_op [OUTPUT MONITOR]  [325] res =  21 oflow = 0  cout = 0 g = 0  l = 0 e = 0 err =0
# UVM_INFO alu_scoreboard.sv(66) @ 325: reporter [SEQUENCE_MATCHED] Matched
# UVM_INFO alu_scoreboard.sv(67) @ 325: reporter [MATCH] match count = 7
# UVM_INFO alu_scoreboard.sv(100) @ 325: uvm_test_top.env.scb_h [EXPECTED] [325] res= 21,cout=0,oflow=0,g=0,l=0,e=0,err=0
# UVM_INFO alu_scoreboard.sv(101) @ 325: uvm_test_top.env.scb_h [ACTUAL] [325] res= 21,cout=0,oflow=0,g=0,l=0,e=0,err=0
# UVM_INFO alu_ip_monitor.sv(47) @ 335: uvm_test_top.env.act_h.mon_ip [IP MON] [335]  mode = 1 ip_valid = 3  cmd =  6  opa =  20 opb = 190  ce = 1 cin = 1
# UVM_INFO alu_op_monitor.sv(48) @ 345: uvm_test_top.env.pass_h.mon_op [OUTPUT MONITOR]  [345] res = 189 oflow = 0  cout = 0 g = 0  l = 0 e = 0 err =0
# UVM_INFO alu_scoreboard.sv(100) @ 345: uvm_test_top.env.scb_h [EXPECTED] [345] res= 21,cout=0,oflow=0,g=0,l=0,e=0,err=0
# UVM_INFO alu_scoreboard.sv(101) @ 345: uvm_test_top.env.scb_h [ACTUAL] [345] res=189,cout=0,oflow=0,g=0,l=0,e=0,err=0
# UVM_INFO alu_driver.sv(69) @ 355: uvm_test_top.env.act_h.drv [DRIVER]  [355] mode = 1 ip_valid = 1  cmd =  7  opa =  74 opb = 157 delay =  0  ce = 1 cin = 1
# UVM_INFO alu_ip_monitor.sv(47) @ 355: uvm_test_top.env.act_h.mon_ip [IP MON] [355]  mode = 1 ip_valid = 3  cmd =  6  opa =  20 opb = 190  ce = 1 cin = 1
# UVM_INFO alu_op_monitor.sv(48) @ 365: uvm_test_top.env.pass_h.mon_op [OUTPUT MONITOR]  [365] res = 189 oflow = 0  cout = 0 g = 0  l = 0 e = 0 err =0
# UVM_INFO alu_scoreboard.sv(100) @ 365: uvm_test_top.env.scb_h [EXPECTED] [365] res= 21,cout=0,oflow=0,g=0,l=0,e=0,err=0
# UVM_INFO alu_scoreboard.sv(101) @ 365: uvm_test_top.env.scb_h [ACTUAL] [365] res=189,cout=0,oflow=0,g=0,l=0,e=0,err=0
# UVM_INFO alu_driver.sv(69) @ 375: uvm_test_top.env.act_h.drv [DRIVER]  [375] mode = 1 ip_valid = 3  cmd =  7  opa =  74 opb = 157 delay =  0  ce = 1 cin = 1
# UVM_INFO alu_ip_monitor.sv(47) @ 375: uvm_test_top.env.act_h.mon_ip [IP MON] [375]  mode = 1 ip_valid = 1  cmd =  7  opa =  74 opb = 157  ce = 1 cin = 1
# UVM_INFO alu_op_monitor.sv(48) @ 385: uvm_test_top.env.pass_h.mon_op [OUTPUT MONITOR]  [385] res = 191 oflow = 0  cout = 0 g = 0  l = 0 e = 0 err =0
# UVM_INFO alu_scoreboard.sv(100) @ 385: uvm_test_top.env.scb_h [EXPECTED] [385] res= 21,cout=0,oflow=0,g=0,l=0,e=0,err=0
# UVM_INFO alu_scoreboard.sv(101) @ 385: uvm_test_top.env.scb_h [ACTUAL] [385] res=191,cout=0,oflow=0,g=0,l=0,e=0,err=0
# UVM_INFO alu_ip_monitor.sv(47) @ 395: uvm_test_top.env.act_h.mon_ip [IP MON] [395]  mode = 1 ip_valid = 3  cmd =  7  opa =  74 opb = 157  ce = 1 cin = 1
# UVM_INFO alu_driver.sv(69) @ 405: uvm_test_top.env.act_h.drv [DRIVER]  [405] mode = 1 ip_valid = 2  cmd =  8  opa = 232 opb = 179 delay =  6  ce = 1 cin = 0
# UVM_INFO alu_op_monitor.sv(48) @ 405: uvm_test_top.env.pass_h.mon_op [OUTPUT MONITOR]  [405] res = 158 oflow = 0  cout = 0 g = 0  l = 0 e = 0 err =0
# UVM_INFO alu_scoreboard.sv(100) @ 405: uvm_test_top.env.scb_h [EXPECTED] [405] res= 21,cout=0,oflow=0,g=0,l=0,e=0,err=0
# UVM_INFO alu_scoreboard.sv(101) @ 405: uvm_test_top.env.scb_h [ACTUAL] [405] res=158,cout=0,oflow=0,g=0,l=0,e=0,err=0
# UVM_INFO alu_ip_monitor.sv(47) @ 415: uvm_test_top.env.act_h.mon_ip [IP MON] [415]  mode = 1 ip_valid = 2  cmd =  8  opa = 232 opb = 179  ce = 1 cin = 0
# UVM_INFO alu_driver.sv(69) @ 425: uvm_test_top.env.act_h.drv [DRIVER]  [425] mode = 1 ip_valid = 2  cmd =  8  opa = 232 opb = 179 delay =  6  ce = 1 cin = 1
# UVM_INFO alu_op_monitor.sv(48) @ 425: uvm_test_top.env.pass_h.mon_op [OUTPUT MONITOR]  [425] res =   0 oflow = 0  cout = 0 g = 0  l = 1 e = 0 err =0
# UVM_INFO alu_ip_monitor.sv(47) @ 435: uvm_test_top.env.act_h.mon_ip [IP MON] [435]  mode = 1 ip_valid = 2  cmd =  8  opa = 232 opb = 179  ce = 1 cin = 1
# UVM_INFO alu_driver.sv(69) @ 445: uvm_test_top.env.act_h.drv [DRIVER]  [445] mode = 1 ip_valid = 2  cmd =  8  opa = 232 opb = 179 delay =  6  ce = 1 cin = 0
# UVM_INFO alu_op_monitor.sv(48) @ 445: uvm_test_top.env.pass_h.mon_op [OUTPUT MONITOR]  [445] res =   0 oflow = 0  cout = 0 g = 0  l = 1 e = 0 err =0
# UVM_INFO alu_ip_monitor.sv(47) @ 455: uvm_test_top.env.act_h.mon_ip [IP MON] [455]  mode = 1 ip_valid = 2  cmd =  8  opa = 232 opb = 179  ce = 1 cin = 0
# UVM_INFO alu_driver.sv(69) @ 465: uvm_test_top.env.act_h.drv [DRIVER]  [465] mode = 1 ip_valid = 2  cmd =  8  opa = 232 opb = 179 delay =  6  ce = 1 cin = 0
# UVM_INFO alu_op_monitor.sv(48) @ 465: uvm_test_top.env.pass_h.mon_op [OUTPUT MONITOR]  [465] res =   0 oflow = 0  cout = 0 g = 0  l = 1 e = 0 err =0
# UVM_INFO alu_ip_monitor.sv(47) @ 475: uvm_test_top.env.act_h.mon_ip [IP MON] [475]  mode = 1 ip_valid = 2  cmd =  8  opa = 232 opb = 179  ce = 1 cin = 0
# UVM_INFO alu_driver.sv(69) @ 485: uvm_test_top.env.act_h.drv [DRIVER]  [485] mode = 1 ip_valid = 2  cmd =  8  opa = 232 opb = 179 delay =  6  ce = 1 cin = 0
# UVM_INFO alu_op_monitor.sv(48) @ 485: uvm_test_top.env.pass_h.mon_op [OUTPUT MONITOR]  [485] res =   0 oflow = 0  cout = 0 g = 0  l = 1 e = 0 err =0
# UVM_INFO alu_ip_monitor.sv(47) @ 495: uvm_test_top.env.act_h.mon_ip [IP MON] [495]  mode = 1 ip_valid = 2  cmd =  8  opa = 232 opb = 179  ce = 1 cin = 0
# UVM_INFO alu_driver.sv(69) @ 505: uvm_test_top.env.act_h.drv [DRIVER]  [505] mode = 1 ip_valid = 2  cmd =  8  opa = 232 opb = 179 delay =  6  ce = 1 cin = 0
