transcript
# vsim -lib work -c top -do "run -all; exit" "+UVM_TESTNAME=alu_add" 
# Start time: 10:13:30 on Sep 12,2024
# ** Note: (vsim-8009) Loading existing optimized design _opt
# //  Questa Sim
# //  Version 10.6c linux Jul 25 2017
# //
# //  Copyright 1991-2017 Mentor Graphics Corporation
# //  All Rights Reserved.
# //
# //  QuestaSim and its associated documentation contain trade
# //  secrets and commercial or financial information that are the property of
# //  Mentor Graphics Corporation and are privileged, confidential,
# //  and exempt from disclosure under the Freedom of Information Act,
# //  5 U.S.C. Section 552. Furthermore, this information
# //  is prohibited from disclosure under the Trade Secrets Act,
# //  18 U.S.C. Section 1905.
# //
# Loading sv_std.std
# Loading mtiUvm.uvm_pkg
# Loading work.alu_top_sv_unit(fast)
# Loading work.top(fast)
# Loading mtiUvm.questa_uvm_pkg(fast)
# Loading work.alu_if(fast)
# ** Warning: (vsim-8637) alu_ip_monitor.sv(35): A modport ('MON') should not be used in a hierarchical path.
#    Time: 0 ns  Iteration: 0  Region: /alu_top_sv_unit File: alu_package.sv
# ** Warning: (vsim-8637) alu_op_monitor.sv(35): A modport ('MON') should not be used in a hierarchical path.
#    Time: 0 ns  Iteration: 0  Region: /alu_top_sv_unit File: alu_package.sv
# ** Warning: (vsim-8637) alu_driver.sv(46): A modport ('DRV') should not be used in a hierarchical path.
#    Time: 0 ns  Iteration: 0  Region: /alu_top_sv_unit::alu_drv File: alu_package.sv
# ** Warning: (vsim-8637) alu_driver.sv(48): A modport ('DRV') should not be used in a hierarchical path.
#    Time: 0 ns  Iteration: 0  Region: /alu_top_sv_unit::alu_drv File: alu_package.sv
# ** Warning: (vsim-8637) alu_driver.sv(49): A modport ('DRV') should not be used in a hierarchical path.
#    Time: 0 ns  Iteration: 0  Region: /alu_top_sv_unit::alu_drv File: alu_package.sv
# ** Warning: (vsim-8637) alu_driver.sv(50): A modport ('DRV') should not be used in a hierarchical path.
#    Time: 0 ns  Iteration: 0  Region: /alu_top_sv_unit::alu_drv File: alu_package.sv
# ** Warning: (vsim-8637) alu_driver.sv(51): A modport ('DRV') should not be used in a hierarchical path.
#    Time: 0 ns  Iteration: 0  Region: /alu_top_sv_unit::alu_drv File: alu_package.sv
# ** Warning: (vsim-8637) alu_driver.sv(52): A modport ('DRV') should not be used in a hierarchical path.
#    Time: 0 ns  Iteration: 0  Region: /alu_top_sv_unit::alu_drv File: alu_package.sv
# ** Warning: (vsim-8637) alu_driver.sv(53): A modport ('DRV') should not be used in a hierarchical path.
#    Time: 0 ns  Iteration: 0  Region: /alu_top_sv_unit::alu_drv File: alu_package.sv
# ** Warning: (vsim-8637) alu_driver.sv(54): A modport ('DRV') should not be used in a hierarchical path.
#    Time: 0 ns  Iteration: 0  Region: /alu_top_sv_unit::alu_drv File: alu_package.sv
# ** Warning: (vsim-8637) alu_driver.sv(55): A modport ('DRV') should not be used in a hierarchical path.
#    Time: 0 ns  Iteration: 0  Region: /alu_top_sv_unit::alu_drv File: alu_package.sv
# ** Warning: (vsim-8637) alu_driver.sv(55): A modport ('DRV') should not be used in a hierarchical path.
#    Time: 0 ns  Iteration: 0  Region: /alu_top_sv_unit::alu_drv File: alu_package.sv
# ** Warning: (vsim-8637) alu_driver.sv(54): A modport ('DRV') should not be used in a hierarchical path.
#    Time: 0 ns  Iteration: 0  Region: /alu_top_sv_unit::alu_drv File: alu_package.sv
# ** Warning: (vsim-8637) alu_driver.sv(53): A modport ('DRV') should not be used in a hierarchical path.
#    Time: 0 ns  Iteration: 0  Region: /alu_top_sv_unit::alu_drv File: alu_package.sv
# ** Warning: (vsim-8637) alu_driver.sv(52): A modport ('DRV') should not be used in a hierarchical path.
#    Time: 0 ns  Iteration: 0  Region: /alu_top_sv_unit::alu_drv File: alu_package.sv
# ** Warning: (vsim-8637) alu_driver.sv(51): A modport ('DRV') should not be used in a hierarchical path.
#    Time: 0 ns  Iteration: 0  Region: /alu_top_sv_unit::alu_drv File: alu_package.sv
# ** Warning: (vsim-8637) alu_driver.sv(50): A modport ('DRV') should not be used in a hierarchical path.
#    Time: 0 ns  Iteration: 0  Region: /alu_top_sv_unit::alu_drv File: alu_package.sv
# ** Warning: (vsim-8637) alu_driver.sv(49): A modport ('DRV') should not be used in a hierarchical path.
#    Time: 0 ns  Iteration: 0  Region: /alu_top_sv_unit::alu_drv File: alu_package.sv
# Loading /tools/mentor/questasim_10.6c/questasim/uvm-1.1d/linux/uvm_dpi.so
# run -all
# ----------------------------------------------------------------
# UVM-1.1d
# (C) 2007-2013 Mentor Graphics Corporation
# (C) 2007-2013 Cadence Design Systems, Inc.
# (C) 2006-2013 Synopsys, Inc.
# (C) 2011-2013 Cypress Semiconductor Corp.
# ----------------------------------------------------------------
# 
#   ***********       IMPORTANT RELEASE NOTES         ************
# 
#   You are using a version of the UVM library that has been compiled
#   with `UVM_NO_DEPRECATED undefined.
#   See http://www.eda.org/svdb/view.php?id=3313 for more details.
# 
#   You are using a version of the UVM library that has been compiled
#   with `UVM_OBJECT_MUST_HAVE_CONSTRUCTOR undefined.
#   See http://www.eda.org/svdb/view.php?id=3770 for more details.
# 
#       (Specify +UVM_NO_RELNOTES to turn off this notice)
# 
# UVM_INFO verilog_src/questa_uvm_pkg-1.2/src/questa_uvm_pkg.sv(215) @ 0: reporter [Questa UVM] QUESTA_UVM-1.2.3
# UVM_INFO verilog_src/questa_uvm_pkg-1.2/src/questa_uvm_pkg.sv(217) @ 0: reporter [Questa UVM]  questa_uvm::init(+struct)
# UVM_INFO @ 0: reporter [RNTST] Running test alu_add...
# -----------------------------------------------------------------
# Name                         Type                     Size  Value
# -----------------------------------------------------------------
# uvm_test_top                 alu_add                  -     @471 
#   env                        alu_env                  -     @478 
#     act_h                    alu_agent_active         -     @489 
#       drv                    alu_drv                  -     @666 
#         rsp_port             uvm_analysis_port        -     @681 
#         seq_item_port        uvm_seq_item_pull_port   -     @673 
#       mon_ip                 alu_ip_monitor           -     @542 
#         item_collected_port  uvm_analysis_port        -     @549 
#       sqr_h                  alu_seqr                 -     @557 
#         rsp_export           uvm_analysis_export      -     @564 
#         seq_item_export      uvm_seq_item_pull_imp    -     @658 
#         arbitration_queue    array                    0     -    
#         lock_queue           array                    0     -    
#         num_last_reqs        integral                 32    'd1  
#         num_last_rsps        integral                 32    'd1  
#     cov_h                    alu_cov                  -     @510 
#       analysis_imp           uvm_analysis_imp         -     @517 
#       mon_ip_imp             uvm_analysis_imp_mon_ip  -     @525 
#       mon_op_imp             uvm_analysis_imp_mon_op  -     @533 
#     pass_h                   alu_agent_passive        -     @496 
#       mon_op                 alu_op_monitor           -     @701 
#         item_collected_port  uvm_analysis_port        -     @708 
#     scb_h                    alu_scb                  -     @503 
#       ip_mon_port            uvm_analysis_imp_ip_mon  -     @721 
#       op_mon_port            uvm_analysis_imp_op_mon  -     @729 
# -----------------------------------------------------------------
# UVM_INFO alu_driver.sv(69) @ 5: uvm_test_top.env.act_h.drv [DRIVER]  [5] mode = 1 ip_valid = 1  cmd =  0  opa = 146 opb =  17 delay =  0  ce = 1 cin = 1
# UVM_INFO alu_ip_monitor.sv(47) @ 15: uvm_test_top.env.act_h.mon_ip [IP MON] [15]  mode = 1 ip_valid = 1  cmd =  0  opa = 146 opb =  17  ce = 1 cin = 1
# UVM_INFO alu_driver.sv(69) @ 25: uvm_test_top.env.act_h.drv [DRIVER]  [25] mode = 1 ip_valid = 3  cmd =  0  opa = 146 opb =  17 delay =  0  ce = 1 cin = 1
# UVM_INFO alu_op_monitor.sv(48) @ 25: uvm_test_top.env.pass_h.mon_op [OUTPUT MONITOR]  [25] res = 146 oflow = 0  cout = 0 g = 0  l = 0 e = 0 err =0
# UVM_INFO alu_ip_monitor.sv(47) @ 35: uvm_test_top.env.act_h.mon_ip [IP MON] [35]  mode = 1 ip_valid = 3  cmd =  0  opa = 146 opb =  17  ce = 1 cin = 1
# UVM_INFO alu_driver.sv(69) @ 45: uvm_test_top.env.act_h.drv [DRIVER]  [45] mode = 1 ip_valid = 3  cmd =  0  opa = 190 opb = 111 delay =  4  ce = 1 cin = 0
# UVM_INFO alu_op_monitor.sv(48) @ 45: uvm_test_top.env.pass_h.mon_op [OUTPUT MONITOR]  [45] res = 163 oflow = 0  cout = 0 g = 0  l = 0 e = 0 err =0
# UVM_INFO alu_scoreboard.sv(66) @ 45: reporter [SEQUENCE_MATCHED] Matched
# UVM_INFO alu_scoreboard.sv(67) @ 45: reporter [MATCH] match count = 1
# UVM_INFO alu_scoreboard.sv(208) @ 45: uvm_test_top.env.scb_h [EXPECTED] [45] res=163,cout=0,oflow=0,g=0,l=0,e=0,err=0
# UVM_INFO alu_scoreboard.sv(209) @ 45: uvm_test_top.env.scb_h [ACTUAL] [45] res=163,cout=0,oflow=0,g=0,l=0,e=0,err=0
# UVM_INFO alu_ip_monitor.sv(47) @ 55: uvm_test_top.env.act_h.mon_ip [IP MON] [55]  mode = 1 ip_valid = 3  cmd =  0  opa = 190 opb = 111  ce = 1 cin = 0
# UVM_INFO alu_driver.sv(69) @ 65: uvm_test_top.env.act_h.drv [DRIVER]  [65] mode = 1 ip_valid = 3  cmd =  0  opa =  19 opb = 253 delay =  5  ce = 1 cin = 0
# UVM_INFO alu_op_monitor.sv(48) @ 65: uvm_test_top.env.pass_h.mon_op [OUTPUT MONITOR]  [65] res = 301 oflow = 0  cout = 1 g = 0  l = 0 e = 0 err =0
# UVM_INFO alu_scoreboard.sv(66) @ 65: reporter [SEQUENCE_MATCHED] Matched
# UVM_INFO alu_scoreboard.sv(67) @ 65: reporter [MATCH] match count = 2
# UVM_INFO alu_scoreboard.sv(208) @ 65: uvm_test_top.env.scb_h [EXPECTED] [65] res=301,cout=1,oflow=0,g=0,l=0,e=0,err=0
# UVM_INFO alu_scoreboard.sv(209) @ 65: uvm_test_top.env.scb_h [ACTUAL] [65] res=301,cout=1,oflow=0,g=0,l=0,e=0,err=0
# UVM_INFO alu_ip_monitor.sv(47) @ 75: uvm_test_top.env.act_h.mon_ip [IP MON] [75]  mode = 1 ip_valid = 3  cmd =  0  opa =  19 opb = 253  ce = 1 cin = 0
# UVM_INFO alu_driver.sv(69) @ 85: uvm_test_top.env.act_h.drv [DRIVER]  [85] mode = 1 ip_valid = 1  cmd =  0  opa = 249 opb = 192 delay =  5  ce = 1 cin = 1
# UVM_INFO alu_op_monitor.sv(48) @ 85: uvm_test_top.env.pass_h.mon_op [OUTPUT MONITOR]  [85] res = 272 oflow = 0  cout = 1 g = 0  l = 0 e = 0 err =0
# UVM_INFO alu_scoreboard.sv(66) @ 85: reporter [SEQUENCE_MATCHED] Matched
# UVM_INFO alu_scoreboard.sv(67) @ 85: reporter [MATCH] match count = 3
# UVM_INFO alu_scoreboard.sv(208) @ 85: uvm_test_top.env.scb_h [EXPECTED] [85] res=272,cout=1,oflow=0,g=0,l=0,e=0,err=0
# UVM_INFO alu_scoreboard.sv(209) @ 85: uvm_test_top.env.scb_h [ACTUAL] [85] res=272,cout=1,oflow=0,g=0,l=0,e=0,err=0
# UVM_INFO alu_ip_monitor.sv(47) @ 95: uvm_test_top.env.act_h.mon_ip [IP MON] [95]  mode = 1 ip_valid = 1  cmd =  0  opa = 249 opb = 192  ce = 1 cin = 1
# UVM_INFO alu_driver.sv(69) @ 105: uvm_test_top.env.act_h.drv [DRIVER]  [105] mode = 1 ip_valid = 1  cmd =  0  opa = 249 opb = 192 delay =  5  ce = 1 cin = 0
# UVM_INFO alu_op_monitor.sv(48) @ 105: uvm_test_top.env.pass_h.mon_op [OUTPUT MONITOR]  [105] res = 502 oflow = 0  cout = 1 g = 0  l = 0 e = 0 err =0
# UVM_INFO alu_ip_monitor.sv(47) @ 115: uvm_test_top.env.act_h.mon_ip [IP MON] [115]  mode = 1 ip_valid = 1  cmd =  0  opa = 249 opb = 192  ce = 1 cin = 0
# UVM_INFO alu_driver.sv(69) @ 125: uvm_test_top.env.act_h.drv [DRIVER]  [125] mode = 1 ip_valid = 1  cmd =  0  opa = 249 opb = 192 delay =  5  ce = 1 cin = 1
# UVM_INFO alu_op_monitor.sv(48) @ 125: uvm_test_top.env.pass_h.mon_op [OUTPUT MONITOR]  [125] res = 502 oflow = 0  cout = 1 g = 0  l = 0 e = 0 err =0
# UVM_INFO alu_ip_monitor.sv(47) @ 135: uvm_test_top.env.act_h.mon_ip [IP MON] [135]  mode = 1 ip_valid = 1  cmd =  0  opa = 249 opb = 192  ce = 1 cin = 1
# UVM_INFO alu_driver.sv(69) @ 145: uvm_test_top.env.act_h.drv [DRIVER]  [145] mode = 1 ip_valid = 1  cmd =  0  opa = 249 opb = 192 delay =  5  ce = 1 cin = 1
# UVM_INFO alu_op_monitor.sv(48) @ 145: uvm_test_top.env.pass_h.mon_op [OUTPUT MONITOR]  [145] res = 502 oflow = 0  cout = 1 g = 0  l = 0 e = 0 err =0
# UVM_INFO alu_ip_monitor.sv(47) @ 155: uvm_test_top.env.act_h.mon_ip [IP MON] [155]  mode = 1 ip_valid = 1  cmd =  0  opa = 249 opb = 192  ce = 1 cin = 1
# UVM_INFO alu_driver.sv(69) @ 165: uvm_test_top.env.act_h.drv [DRIVER]  [165] mode = 1 ip_valid = 1  cmd =  0  opa = 249 opb = 192 delay =  5  ce = 1 cin = 1
# UVM_INFO alu_op_monitor.sv(48) @ 165: uvm_test_top.env.pass_h.mon_op [OUTPUT MONITOR]  [165] res = 502 oflow = 0  cout = 1 g = 0  l = 0 e = 0 err =0
# UVM_INFO alu_ip_monitor.sv(47) @ 175: uvm_test_top.env.act_h.mon_ip [IP MON] [175]  mode = 1 ip_valid = 1  cmd =  0  opa = 249 opb = 192  ce = 1 cin = 1
# UVM_INFO alu_driver.sv(69) @ 185: uvm_test_top.env.act_h.drv [DRIVER]  [185] mode = 1 ip_valid = 1  cmd =  0  opa = 249 opb = 192 delay =  5  ce = 1 cin = 0
# UVM_INFO alu_op_monitor.sv(48) @ 185: uvm_test_top.env.pass_h.mon_op [OUTPUT MONITOR]  [185] res = 502 oflow = 0  cout = 1 g = 0  l = 0 e = 0 err =0
# UVM_INFO alu_ip_monitor.sv(47) @ 195: uvm_test_top.env.act_h.mon_ip [IP MON] [195]  mode = 1 ip_valid = 1  cmd =  0  opa = 249 opb = 192  ce = 1 cin = 0
# UVM_INFO alu_driver.sv(69) @ 205: uvm_test_top.env.act_h.drv [DRIVER]  [205] mode = 1 ip_valid = 3  cmd =  0  opa = 249 opb = 192 delay =  5  ce = 1 cin = 0
# UVM_INFO alu_op_monitor.sv(48) @ 205: uvm_test_top.env.pass_h.mon_op [OUTPUT MONITOR]  [205] res = 502 oflow = 0  cout = 1 g = 0  l = 0 e = 0 err =0
# UVM_INFO alu_ip_monitor.sv(47) @ 215: uvm_test_top.env.act_h.mon_ip [IP MON] [215]  mode = 1 ip_valid = 3  cmd =  0  opa = 249 opb = 192  ce = 1 cin = 0
# UVM_INFO alu_driver.sv(69) @ 225: uvm_test_top.env.act_h.drv [DRIVER]  [225] mode = 1 ip_valid = 0  cmd =  0  opa = 165 opb = 218 delay =  6  ce = 1 cin = 0
# UVM_INFO alu_op_monitor.sv(48) @ 225: uvm_test_top.env.pass_h.mon_op [OUTPUT MONITOR]  [225] res = 441 oflow = 0  cout = 1 g = 0  l = 0 e = 0 err =0
# UVM_INFO alu_scoreboard.sv(66) @ 225: reporter [SEQUENCE_MATCHED] Matched
# UVM_INFO alu_scoreboard.sv(67) @ 225: reporter [MATCH] match count = 4
# UVM_INFO alu_scoreboard.sv(208) @ 225: uvm_test_top.env.scb_h [EXPECTED] [225] res=441,cout=1,oflow=0,g=0,l=0,e=0,err=0
# UVM_INFO alu_scoreboard.sv(209) @ 225: uvm_test_top.env.scb_h [ACTUAL] [225] res=441,cout=1,oflow=0,g=0,l=0,e=0,err=0
# UVM_INFO alu_ip_monitor.sv(47) @ 235: uvm_test_top.env.act_h.mon_ip [IP MON] [235]  mode = 1 ip_valid = 0  cmd =  0  opa = 165 opb = 218  ce = 1 cin = 0
# UVM_INFO alu_driver.sv(69) @ 245: uvm_test_top.env.act_h.drv [DRIVER]  [245] mode = 1 ip_valid = 3  cmd =  0  opa =  22 opb = 171 delay =  7  ce = 1 cin = 1
# UVM_INFO alu_op_monitor.sv(48) @ 245: uvm_test_top.env.pass_h.mon_op [OUTPUT MONITOR]  [245] res =   0 oflow = 0  cout = 0 g = 0  l = 0 e = 0 err =0
# UVM_INFO alu_ip_monitor.sv(47) @ 255: uvm_test_top.env.act_h.mon_ip [IP MON] [255]  mode = 1 ip_valid = 3  cmd =  0  opa =  22 opb = 171  ce = 1 cin = 1
# UVM_INFO alu_driver.sv(69) @ 265: uvm_test_top.env.act_h.drv [DRIVER]  [265] mode = 1 ip_valid = 3  cmd =  0  opa =  20 opb = 190 delay =  3  ce = 1 cin = 1
# UVM_INFO alu_op_monitor.sv(48) @ 265: uvm_test_top.env.pass_h.mon_op [OUTPUT MONITOR]  [265] res = 193 oflow = 0  cout = 0 g = 0  l = 0 e = 0 err =0
# UVM_INFO alu_scoreboard.sv(66) @ 265: reporter [SEQUENCE_MATCHED] Matched
# UVM_INFO alu_scoreboard.sv(67) @ 265: reporter [MATCH] match count = 5
# UVM_INFO alu_scoreboard.sv(208) @ 265: uvm_test_top.env.scb_h [EXPECTED] [265] res=193,cout=0,oflow=0,g=0,l=0,e=0,err=0
# UVM_INFO alu_scoreboard.sv(209) @ 265: uvm_test_top.env.scb_h [ACTUAL] [265] res=193,cout=0,oflow=0,g=0,l=0,e=0,err=0
# UVM_INFO alu_ip_monitor.sv(47) @ 275: uvm_test_top.env.act_h.mon_ip [IP MON] [275]  mode = 1 ip_valid = 3  cmd =  0  opa =  20 opb = 190  ce = 1 cin = 1
# UVM_INFO alu_driver.sv(69) @ 285: uvm_test_top.env.act_h.drv [DRIVER]  [285] mode = 1 ip_valid = 1  cmd =  0  opa =  74 opb = 157 delay =  0  ce = 1 cin = 1
# UVM_INFO alu_op_monitor.sv(48) @ 285: uvm_test_top.env.pass_h.mon_op [OUTPUT MONITOR]  [285] res = 210 oflow = 0  cout = 0 g = 0  l = 0 e = 0 err =0
# UVM_INFO alu_scoreboard.sv(66) @ 285: reporter [SEQUENCE_MATCHED] Matched
# UVM_INFO alu_scoreboard.sv(67) @ 285: reporter [MATCH] match count = 6
# UVM_INFO alu_scoreboard.sv(208) @ 285: uvm_test_top.env.scb_h [EXPECTED] [285] res=210,cout=0,oflow=0,g=0,l=0,e=0,err=0
# UVM_INFO alu_scoreboard.sv(209) @ 285: uvm_test_top.env.scb_h [ACTUAL] [285] res=210,cout=0,oflow=0,g=0,l=0,e=0,err=0
# UVM_INFO alu_ip_monitor.sv(47) @ 295: uvm_test_top.env.act_h.mon_ip [IP MON] [295]  mode = 1 ip_valid = 1  cmd =  0  opa =  74 opb = 157  ce = 1 cin = 1
# UVM_INFO alu_driver.sv(69) @ 305: uvm_test_top.env.act_h.drv [DRIVER]  [305] mode = 1 ip_valid = 3  cmd =  0  opa =  74 opb = 157 delay =  0  ce = 1 cin = 1
# UVM_INFO alu_op_monitor.sv(48) @ 305: uvm_test_top.env.pass_h.mon_op [OUTPUT MONITOR]  [305] res = 264 oflow = 0  cout = 1 g = 0  l = 0 e = 0 err =0
# UVM_INFO alu_ip_monitor.sv(47) @ 315: uvm_test_top.env.act_h.mon_ip [IP MON] [315]  mode = 1 ip_valid = 3  cmd =  0  opa =  74 opb = 157  ce = 1 cin = 1
# UVM_INFO alu_driver.sv(69) @ 325: uvm_test_top.env.act_h.drv [DRIVER]  [325] mode = 1 ip_valid = 2  cmd =  0  opa = 232 opb = 179 delay =  6  ce = 1 cin = 0
# UVM_INFO alu_op_monitor.sv(48) @ 325: uvm_test_top.env.pass_h.mon_op [OUTPUT MONITOR]  [325] res = 231 oflow = 0  cout = 0 g = 0  l = 0 e = 0 err =0
# UVM_INFO alu_scoreboard.sv(66) @ 325: reporter [SEQUENCE_MATCHED] Matched
# UVM_INFO alu_scoreboard.sv(67) @ 325: reporter [MATCH] match count = 7
# UVM_INFO alu_scoreboard.sv(208) @ 325: uvm_test_top.env.scb_h [EXPECTED] [325] res=231,cout=0,oflow=0,g=0,l=0,e=0,err=0
# UVM_INFO alu_scoreboard.sv(209) @ 325: uvm_test_top.env.scb_h [ACTUAL] [325] res=231,cout=0,oflow=0,g=0,l=0,e=0,err=0
# UVM_INFO alu_ip_monitor.sv(47) @ 335: uvm_test_top.env.act_h.mon_ip [IP MON] [335]  mode = 1 ip_valid = 2  cmd =  0  opa = 232 opb = 179  ce = 1 cin = 0
# UVM_INFO alu_driver.sv(69) @ 345: uvm_test_top.env.act_h.drv [DRIVER]  [345] mode = 1 ip_valid = 2  cmd =  0  opa = 232 opb = 179 delay =  6  ce = 1 cin = 1
# UVM_INFO alu_op_monitor.sv(48) @ 345: uvm_test_top.env.pass_h.mon_op [OUTPUT MONITOR]  [345] res = 253 oflow = 0  cout = 0 g = 0  l = 0 e = 0 err =0
# UVM_INFO alu_ip_monitor.sv(47) @ 355: uvm_test_top.env.act_h.mon_ip [IP MON] [355]  mode = 1 ip_valid = 2  cmd =  0  opa = 232 opb = 179  ce = 1 cin = 1
# UVM_INFO alu_driver.sv(69) @ 365: uvm_test_top.env.act_h.drv [DRIVER]  [365] mode = 1 ip_valid = 2  cmd =  0  opa = 232 opb = 179 delay =  6  ce = 1 cin = 0
# UVM_INFO alu_op_monitor.sv(48) @ 365: uvm_test_top.env.pass_h.mon_op [OUTPUT MONITOR]  [365] res = 253 oflow = 0  cout = 0 g = 0  l = 0 e = 0 err =0
# UVM_INFO alu_ip_monitor.sv(47) @ 375: uvm_test_top.env.act_h.mon_ip [IP MON] [375]  mode = 1 ip_valid = 2  cmd =  0  opa = 232 opb = 179  ce = 1 cin = 0
# UVM_INFO alu_driver.sv(69) @ 385: uvm_test_top.env.act_h.drv [DRIVER]  [385] mode = 1 ip_valid = 2  cmd =  0  opa = 232 opb = 179 delay =  6  ce = 1 cin = 0
# UVM_INFO alu_op_monitor.sv(48) @ 385: uvm_test_top.env.pass_h.mon_op [OUTPUT MONITOR]  [385] res = 253 oflow = 0  cout = 0 g = 0  l = 0 e = 0 err =0
# UVM_INFO alu_ip_monitor.sv(47) @ 395: uvm_test_top.env.act_h.mon_ip [IP MON] [395]  mode = 1 ip_valid = 2  cmd =  0  opa = 232 opb = 179  ce = 1 cin = 0
# UVM_INFO alu_driver.sv(69) @ 405: uvm_test_top.env.act_h.drv [DRIVER]  [405] mode = 1 ip_valid = 2  cmd =  0  opa = 232 opb = 179 delay =  6  ce = 1 cin = 0
# UVM_INFO alu_op_monitor.sv(48) @ 405: uvm_test_top.env.pass_h.mon_op [OUTPUT MONITOR]  [405] res = 253 oflow = 0  cout = 0 g = 0  l = 0 e = 0 err =0
# UVM_INFO alu_ip_monitor.sv(47) @ 415: uvm_test_top.env.act_h.mon_ip [IP MON] [415]  mode = 1 ip_valid = 2  cmd =  0  opa = 232 opb = 179  ce = 1 cin = 0
# UVM_INFO alu_driver.sv(69) @ 425: uvm_test_top.env.act_h.drv [DRIVER]  [425] mode = 1 ip_valid = 2  cmd =  0  opa = 232 opb = 179 delay =  6  ce = 1 cin = 0
# UVM_INFO alu_op_monitor.sv(48) @ 425: uvm_test_top.env.pass_h.mon_op [OUTPUT MONITOR]  [425] res = 253 oflow = 0  cout = 0 g = 0  l = 0 e = 0 err =0
# UVM_INFO alu_ip_monitor.sv(47) @ 435: uvm_test_top.env.act_h.mon_ip [IP MON] [435]  mode = 1 ip_valid = 2  cmd =  0  opa = 232 opb = 179  ce = 1 cin = 0
# UVM_INFO alu_driver.sv(69) @ 445: uvm_test_top.env.act_h.drv [DRIVER]  [445] mode = 1 ip_valid = 2  cmd =  0  opa = 232 opb = 179 delay =  6  ce = 1 cin = 0
# UVM_INFO alu_op_monitor.sv(48) @ 445: uvm_test_top.env.pass_h.mon_op [OUTPUT MONITOR]  [445] res = 253 oflow = 0  cout = 0 g = 0  l = 0 e = 0 err =0
# UVM_INFO alu_ip_monitor.sv(47) @ 455: uvm_test_top.env.act_h.mon_ip [IP MON] [455]  mode = 1 ip_valid = 2  cmd =  0  opa = 232 opb = 179  ce = 1 cin = 0
# UVM_INFO alu_driver.sv(69) @ 465: uvm_test_top.env.act_h.drv [DRIVER]  [465] mode = 1 ip_valid = 3  cmd =  0  opa = 232 opb = 179 delay =  6  ce = 1 cin = 1
# UVM_INFO alu_op_monitor.sv(48) @ 465: uvm_test_top.env.pass_h.mon_op [OUTPUT MONITOR]  [465] res = 253 oflow = 0  cout = 0 g = 0  l = 0 e = 0 err =0
# UVM_INFO alu_ip_monitor.sv(47) @ 475: uvm_test_top.env.act_h.mon_ip [IP MON] [475]  mode = 1 ip_valid = 3  cmd =  0  opa = 232 opb = 179  ce = 1 cin = 1
# UVM_INFO alu_driver.sv(69) @ 485: uvm_test_top.env.act_h.drv [DRIVER]  [485] mode = 1 ip_valid = 1  cmd =  0  opa =  12 opb = 228 delay =  1  ce = 1 cin = 0
# UVM_INFO alu_op_monitor.sv(48) @ 485: uvm_test_top.env.pass_h.mon_op [OUTPUT MONITOR]  [485] res = 411 oflow = 0  cout = 1 g = 0  l = 0 e = 0 err =0
# UVM_INFO alu_scoreboard.sv(66) @ 485: reporter [SEQUENCE_MATCHED] Matched
# UVM_INFO alu_scoreboard.sv(67) @ 485: reporter [MATCH] match count = 8
# UVM_INFO alu_scoreboard.sv(208) @ 485: uvm_test_top.env.scb_h [EXPECTED] [485] res=411,cout=1,oflow=0,g=0,l=0,e=0,err=0
# UVM_INFO alu_scoreboard.sv(209) @ 485: uvm_test_top.env.scb_h [ACTUAL] [485] res=411,cout=1,oflow=0,g=0,l=0,e=0,err=0
# UVM_INFO alu_ip_monitor.sv(47) @ 495: uvm_test_top.env.act_h.mon_ip [IP MON] [495]  mode = 1 ip_valid = 1  cmd =  0  opa =  12 opb = 228  ce = 1 cin = 0
# UVM_INFO alu_driver.sv(69) @ 505: uvm_test_top.env.act_h.drv [DRIVER]  [505] mode = 1 ip_valid = 1  cmd =  0  opa =  12 opb = 228 delay =  1  ce = 1 cin = 0
# UVM_INFO alu_op_monitor.sv(48) @ 505: uvm_test_top.env.pass_h.mon_op [OUTPUT MONITOR]  [505] res = 191 oflow = 0  cout = 0 g = 0  l = 0 e = 0 err =0
# UVM_INFO alu_ip_monitor.sv(47) @ 515: uvm_test_top.env.act_h.mon_ip [IP MON] [515]  mode = 1 ip_valid = 1  cmd =  0  opa =  12 opb = 228  ce = 1 cin = 0
# UVM_INFO alu_driver.sv(69) @ 525: uvm_test_top.env.act_h.drv [DRIVER]  [525] mode = 1 ip_valid = 3  cmd =  0  opa =  12 opb = 228 delay =  1  ce = 1 cin = 1
# UVM_INFO alu_op_monitor.sv(48) @ 525: uvm_test_top.env.pass_h.mon_op [OUTPUT MONITOR]  [525] res = 191 oflow = 0  cout = 0 g = 0  l = 0 e = 0 err =0
# UVM_INFO alu_ip_monitor.sv(47) @ 535: uvm_test_top.env.act_h.mon_ip [IP MON] [535]  mode = 1 ip_valid = 3  cmd =  0  opa =  12 opb = 228  ce = 1 cin = 1
# UVM_INFO verilog_src/uvm-1.1d/src/base/uvm_objection.svh(1268) @ 535: reporter [TEST_DONE] 'run' phase is ready to proceed to the 'extract' phase
# UVM_INFO alu_coverage.sv(118) @ 535: uvm_test_top.env.cov_h [COVERAGE] 
#  Input coverage is 72.321429 
#  output coverage is 64.285714
# 
# --- UVM Report Summary ---
# 
# ** Report counts by severity
# UVM_INFO :  117
# UVM_WARNING :    0
# UVM_ERROR :    0
# UVM_FATAL :    0
# ** Report counts by id
# [ACTUAL]     8
# [COVERAGE]     1
# [DRIVER]    27
# [EXPECTED]     8
# [IP MON]    27
# [MATCH]     8
# [OUTPUT MONITOR]    26
# [Questa UVM]     2
# [RNTST]     1
# [SEQUENCE_MATCHED]     8
# [TEST_DONE]     1
# ** Note: $finish    : /tools/mentor/questasim_10.6c/questasim/linux/../verilog_src/uvm-1.1d/src/base/uvm_root.svh(430)
#    Time: 535 ns  Iteration: 63  Instance: /top
# End time: 10:13:31 on Sep 12,2024, Elapsed time: 0:00:01
# Errors: 0, Warnings: 18
