transcript
# vsim -c top 
# Start time: 11:31:07 on Sep 10,2024
# ** Note: (vsim-3812) Design is being optimized...
# ** Warning: (vopt-8637) alu_ip_monitor.sv(35): A modport ('MON') should not be used in a hierarchical path.
# ** Warning: (vopt-8637) alu_ip_monitor.sv(35): A modport ('MON') should not be used in a hierarchical path.
# ** Warning: (vopt-8637) alu_ip_monitor.sv(39): A modport ('MON') should not be used in a hierarchical path.
# ** Warning: (vopt-8637) alu_ip_monitor.sv(39): A modport ('MON') should not be used in a hierarchical path.
# ** Warning: (vopt-8637) alu_ip_monitor.sv(40): A modport ('MON') should not be used in a hierarchical path.
# ** Warning: (vopt-8637) alu_ip_monitor.sv(40): A modport ('MON') should not be used in a hierarchical path.
# ** Warning: (vopt-8637) alu_ip_monitor.sv(41): A modport ('MON') should not be used in a hierarchical path.
# ** Warning: (vopt-8637) alu_ip_monitor.sv(41): A modport ('MON') should not be used in a hierarchical path.
# ** Warning: (vopt-8637) alu_ip_monitor.sv(42): A modport ('MON') should not be used in a hierarchical path.
# ** Warning: (vopt-8637) alu_ip_monitor.sv(42): A modport ('MON') should not be used in a hierarchical path.
# ** Warning: (vopt-8637) alu_ip_monitor.sv(43): A modport ('MON') should not be used in a hierarchical path.
# ** Warning: (vopt-8637) alu_ip_monitor.sv(43): A modport ('MON') should not be used in a hierarchical path.
# ** Warning: (vopt-8637) alu_ip_monitor.sv(44): A modport ('MON') should not be used in a hierarchical path.
# ** Warning: (vopt-8637) alu_ip_monitor.sv(44): A modport ('MON') should not be used in a hierarchical path.
# ** Warning: (vopt-8637) alu_ip_monitor.sv(45): A modport ('MON') should not be used in a hierarchical path.
# ** Warning: (vopt-8637) alu_ip_monitor.sv(45): A modport ('MON') should not be used in a hierarchical path.
# ** Warning: (vopt-8637) alu_op_monitor.sv(35): A modport ('MON') should not be used in a hierarchical path.
# ** Warning: (vopt-8637) alu_op_monitor.sv(35): A modport ('MON') should not be used in a hierarchical path.
# ** Warning: (vopt-8637) alu_op_monitor.sv(39): A modport ('MON') should not be used in a hierarchical path.
# ** Warning: (vopt-8637) alu_op_monitor.sv(39): A modport ('MON') should not be used in a hierarchical path.
# ** Warning: (vopt-8637) alu_op_monitor.sv(40): A modport ('MON') should not be used in a hierarchical path.
# ** Warning: (vopt-8637) alu_op_monitor.sv(40): A modport ('MON') should not be used in a hierarchical path.
# ** Warning: (vopt-8637) alu_op_monitor.sv(41): A modport ('MON') should not be used in a hierarchical path.
# ** Warning: (vopt-8637) alu_op_monitor.sv(41): A modport ('MON') should not be used in a hierarchical path.
# ** Warning: (vopt-8637) alu_op_monitor.sv(42): A modport ('MON') should not be used in a hierarchical path.
# ** Warning: (vopt-8637) alu_op_monitor.sv(42): A modport ('MON') should not be used in a hierarchical path.
# ** Warning: (vopt-8637) alu_op_monitor.sv(43): A modport ('MON') should not be used in a hierarchical path.
# ** Warning: (vopt-8637) alu_op_monitor.sv(43): A modport ('MON') should not be used in a hierarchical path.
# ** Warning: (vopt-8637) alu_op_monitor.sv(44): A modport ('MON') should not be used in a hierarchical path.
# ** Warning: (vopt-8637) alu_op_monitor.sv(44): A modport ('MON') should not be used in a hierarchical path.
# ** Warning: (vopt-8637) alu_op_monitor.sv(45): A modport ('MON') should not be used in a hierarchical path.
# ** Warning: (vopt-8637) alu_op_monitor.sv(45): A modport ('MON') should not be used in a hierarchical path.
# ** Warning: alu_top.sv(28): (vopt-2241) Connection width does not match width of port 'RES'. The port definition is at: alu_design.v(1).
# ** Warning: alu_sequence.sv(29): (vopt-2240) Treating stand-alone use of function 'randomize' as an implicit VOID cast.
# ** Warning: alu_sequence.sv(54): (vopt-2240) Treating stand-alone use of function 'randomize' as an implicit VOID cast.
# ** Warning: alu_sequence.sv(66): (vopt-2240) Treating stand-alone use of function 'randomize' as an implicit VOID cast.
# ** Warning: alu_sequence.sv(73): (vopt-2240) Treating stand-alone use of function 'randomize' as an implicit VOID cast.
# //  Questa Sim
# //  Version 10.6c linux Jul 25 2017
# //
# //  Copyright 1991-2017 Mentor Graphics Corporation
# //  All Rights Reserved.
# //
# //  QuestaSim and its associated documentation contain trade
# //  secrets and commercial or financial information that are the property of
# //  Mentor Graphics Corporation and are privileged, confidential,
# //  and exempt from disclosure under the Freedom of Information Act,
# //  5 U.S.C. Section 552. Furthermore, this information
# //  is prohibited from disclosure under the Trade Secrets Act,
# //  18 U.S.C. Section 1905.
# //
# Loading sv_std.std
# Loading mtiUvm.uvm_pkg
# Loading work.alu_top_sv_unit(fast)
# Loading work.top(fast)
# Loading mtiUvm.questa_uvm_pkg(fast)
# Loading work.alu_if(fast)
# ** Warning: (vsim-8637) alu_ip_monitor.sv(35): A modport ('MON') should not be used in a hierarchical path.
#    Time: 0 ns  Iteration: 0  Region: /alu_top_sv_unit File: alu_package.sv
# ** Warning: (vsim-8637) alu_op_monitor.sv(35): A modport ('MON') should not be used in a hierarchical path.
#    Time: 0 ns  Iteration: 0  Region: /alu_top_sv_unit File: alu_package.sv
# ** Warning: (vsim-8637) alu_driver.sv(46): A modport ('DRV') should not be used in a hierarchical path.
#    Time: 0 ns  Iteration: 0  Region: /alu_top_sv_unit::alu_drv File: alu_package.sv
# ** Warning: (vsim-8637) alu_driver.sv(48): A modport ('DRV') should not be used in a hierarchical path.
#    Time: 0 ns  Iteration: 0  Region: /alu_top_sv_unit::alu_drv File: alu_package.sv
# ** Warning: (vsim-8637) alu_driver.sv(49): A modport ('DRV') should not be used in a hierarchical path.
#    Time: 0 ns  Iteration: 0  Region: /alu_top_sv_unit::alu_drv File: alu_package.sv
# ** Warning: (vsim-8637) alu_driver.sv(50): A modport ('DRV') should not be used in a hierarchical path.
#    Time: 0 ns  Iteration: 0  Region: /alu_top_sv_unit::alu_drv File: alu_package.sv
# ** Warning: (vsim-8637) alu_driver.sv(51): A modport ('DRV') should not be used in a hierarchical path.
#    Time: 0 ns  Iteration: 0  Region: /alu_top_sv_unit::alu_drv File: alu_package.sv
# ** Warning: (vsim-8637) alu_driver.sv(52): A modport ('DRV') should not be used in a hierarchical path.
#    Time: 0 ns  Iteration: 0  Region: /alu_top_sv_unit::alu_drv File: alu_package.sv
# ** Warning: (vsim-8637) alu_driver.sv(53): A modport ('DRV') should not be used in a hierarchical path.
#    Time: 0 ns  Iteration: 0  Region: /alu_top_sv_unit::alu_drv File: alu_package.sv
# ** Warning: (vsim-8637) alu_driver.sv(54): A modport ('DRV') should not be used in a hierarchical path.
#    Time: 0 ns  Iteration: 0  Region: /alu_top_sv_unit::alu_drv File: alu_package.sv
# ** Warning: (vsim-8637) alu_driver.sv(55): A modport ('DRV') should not be used in a hierarchical path.
#    Time: 0 ns  Iteration: 0  Region: /alu_top_sv_unit::alu_drv File: alu_package.sv
# ** Warning: (vsim-8637) alu_driver.sv(55): A modport ('DRV') should not be used in a hierarchical path.
#    Time: 0 ns  Iteration: 0  Region: /alu_top_sv_unit::alu_drv File: alu_package.sv
# ** Warning: (vsim-8637) alu_driver.sv(54): A modport ('DRV') should not be used in a hierarchical path.
#    Time: 0 ns  Iteration: 0  Region: /alu_top_sv_unit::alu_drv File: alu_package.sv
# ** Warning: (vsim-8637) alu_driver.sv(53): A modport ('DRV') should not be used in a hierarchical path.
#    Time: 0 ns  Iteration: 0  Region: /alu_top_sv_unit::alu_drv File: alu_package.sv
# ** Warning: (vsim-8637) alu_driver.sv(52): A modport ('DRV') should not be used in a hierarchical path.
#    Time: 0 ns  Iteration: 0  Region: /alu_top_sv_unit::alu_drv File: alu_package.sv
# ** Warning: (vsim-8637) alu_driver.sv(51): A modport ('DRV') should not be used in a hierarchical path.
#    Time: 0 ns  Iteration: 0  Region: /alu_top_sv_unit::alu_drv File: alu_package.sv
# ** Warning: (vsim-8637) alu_driver.sv(50): A modport ('DRV') should not be used in a hierarchical path.
#    Time: 0 ns  Iteration: 0  Region: /alu_top_sv_unit::alu_drv File: alu_package.sv
# ** Warning: (vsim-8637) alu_driver.sv(49): A modport ('DRV') should not be used in a hierarchical path.
#    Time: 0 ns  Iteration: 0  Region: /alu_top_sv_unit::alu_drv File: alu_package.sv
# Loading /tools/mentor/questasim_10.6c/questasim/uvm-1.1d/linux/uvm_dpi.so
# invalid command name "run-all"
# ----------------------------------------------------------------
# UVM-1.1d
# (C) 2007-2013 Mentor Graphics Corporation
# (C) 2007-2013 Cadence Design Systems, Inc.
# (C) 2006-2013 Synopsys, Inc.
# (C) 2011-2013 Cypress Semiconductor Corp.
# ----------------------------------------------------------------
# 
#   ***********       IMPORTANT RELEASE NOTES         ************
# 
#   You are using a version of the UVM library that has been compiled
#   with `UVM_NO_DEPRECATED undefined.
#   See http://www.eda.org/svdb/view.php?id=3313 for more details.
# 
#   You are using a version of the UVM library that has been compiled
#   with `UVM_OBJECT_MUST_HAVE_CONSTRUCTOR undefined.
#   See http://www.eda.org/svdb/view.php?id=3770 for more details.
# 
#       (Specify +UVM_NO_RELNOTES to turn off this notice)
# 
# UVM_INFO verilog_src/questa_uvm_pkg-1.2/src/questa_uvm_pkg.sv(215) @ 0: reporter [Questa UVM] QUESTA_UVM-1.2.3
# UVM_INFO verilog_src/questa_uvm_pkg-1.2/src/questa_uvm_pkg.sv(217) @ 0: reporter [Questa UVM]  questa_uvm::init(+struct)
# UVM_INFO @ 0: reporter [RNTST] Running test alu_add...
# -----------------------------------------------------------------
# Name                         Type                     Size  Value
# -----------------------------------------------------------------
# uvm_test_top                 alu_add                  -     @471 
#   env                        alu_env                  -     @478 
#     act_h                    alu_agent_active         -     @489 
#       drv                    alu_drv                  -     @635 
#         rsp_port             uvm_analysis_port        -     @650 
#         seq_item_port        uvm_seq_item_pull_port   -     @642 
#       mon_ip                 alu_ip_monitor           -     @511 
#         item_collected_port  uvm_analysis_port        -     @518 
#       sqr_h                  alu_seqr                 -     @526 
#         rsp_export           uvm_analysis_export      -     @533 
#         seq_item_export      uvm_seq_item_pull_imp    -     @627 
#         arbitration_queue    array                    0     -    
#         lock_queue           array                    0     -    
#         num_last_reqs        integral                 32    'd1  
#         num_last_rsps        integral                 32    'd1  
#     pass_h                   alu_agent_passive        -     @496 
#       mon_op                 alu_op_monitor           -     @670 
#         item_collected_port  uvm_analysis_port        -     @677 
#     scb_h                    alu_scb                  -     @503 
#       ip_mon_port            uvm_analysis_imp_ip_mon  -     @690 
#       op_mon_port            uvm_analysis_imp_op_mon  -     @698 
# -----------------------------------------------------------------
# UVM_INFO alu_driver.sv(69) @ 5: uvm_test_top.env.act_h.drv [DRIVER]  [5] mode = 1 ip_valid = 1  cmd =  0  opa = 146 opb =  17 delay =  0  ce = 1 cin = 1
# UVM_INFO alu_ip_monitor.sv(47) @ 15: uvm_test_top.env.act_h.mon_ip [IP MON] [15]  mode = 1 ip_valid = 1  cmd =  0  opa = 146 opb =  17  ce = 1 cin = 1
# UVM_INFO alu_driver.sv(69) @ 25: uvm_test_top.env.act_h.drv [DRIVER]  [25] mode = 1 ip_valid = 3  cmd =  0  opa = 146 opb =  17 delay =  0  ce = 1 cin = 1
# UVM_INFO alu_op_monitor.sv(48) @ 25: uvm_test_top.env.pass_h.mon_op [OUTPUT MONITOR]  [25] res = 146 oflow = 0  cout = 0 g = 0  l = 0 e = 0 err =0
#  [25] COMPARE mode = 1 ip_valid = 1  cmd =  0  opa = 146 opb =  17  ce = 1 cin = 1
#  [25] COMPARE RUN PHASE res = 146 oflow = 0  cout = 0 g = 0  l = 0 e = 0 err =0
# UVM_INFO alu_scoreboard.sv(65) @ 25: uvm_test_top.env.scb_h [SEQUENCE_MISMATCHED] Mismatched
# UVM_INFO alu_scoreboard.sv(66) @ 25: uvm_test_top.env.scb_h [MISMATCH] mismatch count = 1
# UVM_INFO alu_ip_monitor.sv(47) @ 35: uvm_test_top.env.act_h.mon_ip [IP MON] [35]  mode = 1 ip_valid = 3  cmd =  0  opa = 146 opb =  17  ce = 1 cin = 1
# UVM_INFO alu_driver.sv(69) @ 45: uvm_test_top.env.act_h.drv [DRIVER]  [45] mode = 1 ip_valid = 3  cmd =  0  opa = 190 opb = 111 delay =  4  ce = 1 cin = 0
# UVM_INFO alu_op_monitor.sv(48) @ 45: uvm_test_top.env.pass_h.mon_op [OUTPUT MONITOR]  [45] res = 163 oflow = 0  cout = 0 g = 0  l = 0 e = 0 err =0
#  [45] COMPARE mode = 1 ip_valid = 3  cmd =  0  opa = 146 opb =  17  ce = 1 cin = 1
#  [45] COMPARE RUN PHASE res = 163 oflow = 0  cout = 0 g = 0  l = 0 e = 0 err =0
# UVM_INFO alu_scoreboard.sv(58) @ 45: uvm_test_top.env.scb_h [SEQUENCE_MATCHED] Matched
# UVM_INFO alu_scoreboard.sv(59) @ 45: uvm_test_top.env.scb_h [MATCH] match count = 1
# UVM_INFO alu_ip_monitor.sv(47) @ 55: uvm_test_top.env.act_h.mon_ip [IP MON] [55]  mode = 1 ip_valid = 3  cmd =  0  opa = 190 opb = 111  ce = 1 cin = 0
# UVM_INFO alu_driver.sv(69) @ 65: uvm_test_top.env.act_h.drv [DRIVER]  [65] mode = 1 ip_valid = 3  cmd =  0  opa =  19 opb = 253 delay =  5  ce = 1 cin = 0
# UVM_INFO alu_op_monitor.sv(48) @ 65: uvm_test_top.env.pass_h.mon_op [OUTPUT MONITOR]  [65] res = 301 oflow = 0  cout = 1 g = 0  l = 0 e = 0 err =0
#  [65] COMPARE mode = 1 ip_valid = 3  cmd =  0  opa = 190 opb = 111  ce = 1 cin = 0
#  [65] COMPARE RUN PHASE res = 301 oflow = 0  cout = 1 g = 0  l = 0 e = 0 err =0
# UVM_INFO alu_scoreboard.sv(58) @ 65: uvm_test_top.env.scb_h [SEQUENCE_MATCHED] Matched
# UVM_INFO alu_scoreboard.sv(59) @ 65: uvm_test_top.env.scb_h [MATCH] match count = 2
# UVM_INFO alu_ip_monitor.sv(47) @ 75: uvm_test_top.env.act_h.mon_ip [IP MON] [75]  mode = 1 ip_valid = 3  cmd =  0  opa =  19 opb = 253  ce = 1 cin = 0
# UVM_INFO alu_driver.sv(69) @ 85: uvm_test_top.env.act_h.drv [DRIVER]  [85] mode = 1 ip_valid = 1  cmd =  0  opa = 249 opb = 192 delay =  5  ce = 1 cin = 1
# UVM_INFO alu_op_monitor.sv(48) @ 85: uvm_test_top.env.pass_h.mon_op [OUTPUT MONITOR]  [85] res = 272 oflow = 0  cout = 1 g = 0  l = 0 e = 0 err =0
#  [85] COMPARE mode = 1 ip_valid = 3  cmd =  0  opa =  19 opb = 253  ce = 1 cin = 0
#  [85] COMPARE RUN PHASE res = 272 oflow = 0  cout = 1 g = 0  l = 0 e = 0 err =0
# UVM_INFO alu_scoreboard.sv(58) @ 85: uvm_test_top.env.scb_h [SEQUENCE_MATCHED] Matched
# UVM_INFO alu_scoreboard.sv(59) @ 85: uvm_test_top.env.scb_h [MATCH] match count = 3
# UVM_INFO alu_ip_monitor.sv(47) @ 95: uvm_test_top.env.act_h.mon_ip [IP MON] [95]  mode = 1 ip_valid = 1  cmd =  0  opa = 249 opb = 192  ce = 1 cin = 1
# UVM_INFO alu_driver.sv(69) @ 105: uvm_test_top.env.act_h.drv [DRIVER]  [105] mode = 1 ip_valid = 1  cmd =  0  opa = 249 opb = 192 delay =  5  ce = 1 cin = 0
# UVM_INFO alu_op_monitor.sv(48) @ 105: uvm_test_top.env.pass_h.mon_op [OUTPUT MONITOR]  [105] res = 502 oflow = 0  cout = 1 g = 0  l = 0 e = 0 err =0
#  [105] COMPARE mode = 1 ip_valid = 1  cmd =  0  opa = 249 opb = 192  ce = 1 cin = 1
#  [105] COMPARE RUN PHASE res = 502 oflow = 0  cout = 1 g = 0  l = 0 e = 0 err =0
# UVM_INFO alu_scoreboard.sv(65) @ 105: uvm_test_top.env.scb_h [SEQUENCE_MISMATCHED] Mismatched
# UVM_INFO alu_scoreboard.sv(66) @ 105: uvm_test_top.env.scb_h [MISMATCH] mismatch count = 2
# UVM_INFO alu_ip_monitor.sv(47) @ 115: uvm_test_top.env.act_h.mon_ip [IP MON] [115]  mode = 1 ip_valid = 1  cmd =  0  opa = 249 opb = 192  ce = 1 cin = 0
# UVM_INFO alu_driver.sv(69) @ 125: uvm_test_top.env.act_h.drv [DRIVER]  [125] mode = 1 ip_valid = 1  cmd =  0  opa = 249 opb = 192 delay =  5  ce = 1 cin = 1
# UVM_INFO alu_op_monitor.sv(48) @ 125: uvm_test_top.env.pass_h.mon_op [OUTPUT MONITOR]  [125] res = 502 oflow = 0  cout = 1 g = 0  l = 0 e = 0 err =0
#  [125] COMPARE mode = 1 ip_valid = 1  cmd =  0  opa = 249 opb = 192  ce = 1 cin = 0
#  [125] COMPARE RUN PHASE res = 502 oflow = 0  cout = 1 g = 0  l = 0 e = 0 err =0
# UVM_INFO alu_scoreboard.sv(65) @ 125: uvm_test_top.env.scb_h [SEQUENCE_MISMATCHED] Mismatched
# UVM_INFO alu_scoreboard.sv(66) @ 125: uvm_test_top.env.scb_h [MISMATCH] mismatch count = 3
# UVM_INFO alu_ip_monitor.sv(47) @ 135: uvm_test_top.env.act_h.mon_ip [IP MON] [135]  mode = 1 ip_valid = 1  cmd =  0  opa = 249 opb = 192  ce = 1 cin = 1
# UVM_INFO alu_driver.sv(69) @ 145: uvm_test_top.env.act_h.drv [DRIVER]  [145] mode = 1 ip_valid = 1  cmd =  0  opa = 249 opb = 192 delay =  5  ce = 1 cin = 1
# UVM_INFO alu_op_monitor.sv(48) @ 145: uvm_test_top.env.pass_h.mon_op [OUTPUT MONITOR]  [145] res = 502 oflow = 0  cout = 1 g = 0  l = 0 e = 0 err =0
#  [145] COMPARE mode = 1 ip_valid = 1  cmd =  0  opa = 249 opb = 192  ce = 1 cin = 1
#  [145] COMPARE RUN PHASE res = 502 oflow = 0  cout = 1 g = 0  l = 0 e = 0 err =0
# UVM_INFO alu_scoreboard.sv(65) @ 145: uvm_test_top.env.scb_h [SEQUENCE_MISMATCHED] Mismatched
# UVM_INFO alu_scoreboard.sv(66) @ 145: uvm_test_top.env.scb_h [MISMATCH] mismatch count = 4
# UVM_INFO alu_ip_monitor.sv(47) @ 155: uvm_test_top.env.act_h.mon_ip [IP MON] [155]  mode = 1 ip_valid = 1  cmd =  0  opa = 249 opb = 192  ce = 1 cin = 1
# UVM_INFO alu_driver.sv(69) @ 165: uvm_test_top.env.act_h.drv [DRIVER]  [165] mode = 1 ip_valid = 1  cmd =  0  opa = 249 opb = 192 delay =  5  ce = 1 cin = 1
# UVM_INFO alu_op_monitor.sv(48) @ 165: uvm_test_top.env.pass_h.mon_op [OUTPUT MONITOR]  [165] res = 502 oflow = 0  cout = 1 g = 0  l = 0 e = 0 err =0
#  [165] COMPARE mode = 1 ip_valid = 1  cmd =  0  opa = 249 opb = 192  ce = 1 cin = 1
#  [165] COMPARE RUN PHASE res = 502 oflow = 0  cout = 1 g = 0  l = 0 e = 0 err =0
# UVM_INFO alu_scoreboard.sv(65) @ 165: uvm_test_top.env.scb_h [SEQUENCE_MISMATCHED] Mismatched
# UVM_INFO alu_scoreboard.sv(66) @ 165: uvm_test_top.env.scb_h [MISMATCH] mismatch count = 5
# UVM_INFO alu_ip_monitor.sv(47) @ 175: uvm_test_top.env.act_h.mon_ip [IP MON] [175]  mode = 1 ip_valid = 1  cmd =  0  opa = 249 opb = 192  ce = 1 cin = 1
# UVM_INFO alu_driver.sv(69) @ 185: uvm_test_top.env.act_h.drv [DRIVER]  [185] mode = 1 ip_valid = 1  cmd =  0  opa = 249 opb = 192 delay =  5  ce = 1 cin = 0
# UVM_INFO alu_op_monitor.sv(48) @ 185: uvm_test_top.env.pass_h.mon_op [OUTPUT MONITOR]  [185] res = 502 oflow = 0  cout = 1 g = 0  l = 0 e = 0 err =0
#  [185] COMPARE mode = 1 ip_valid = 1  cmd =  0  opa = 249 opb = 192  ce = 1 cin = 1
#  [185] COMPARE RUN PHASE res = 502 oflow = 0  cout = 1 g = 0  l = 0 e = 0 err =0
# UVM_INFO alu_scoreboard.sv(65) @ 185: uvm_test_top.env.scb_h [SEQUENCE_MISMATCHED] Mismatched
# UVM_INFO alu_scoreboard.sv(66) @ 185: uvm_test_top.env.scb_h [MISMATCH] mismatch count = 6
# UVM_INFO alu_ip_monitor.sv(47) @ 195: uvm_test_top.env.act_h.mon_ip [IP MON] [195]  mode = 1 ip_valid = 1  cmd =  0  opa = 249 opb = 192  ce = 1 cin = 0
# UVM_INFO alu_driver.sv(69) @ 205: uvm_test_top.env.act_h.drv [DRIVER]  [205] mode = 1 ip_valid = 3  cmd =  0  opa = 249 opb = 192 delay =  5  ce = 1 cin = 0
# UVM_INFO alu_op_monitor.sv(48) @ 205: uvm_test_top.env.pass_h.mon_op [OUTPUT MONITOR]  [205] res = 502 oflow = 0  cout = 1 g = 0  l = 0 e = 0 err =0
#  [205] COMPARE mode = 1 ip_valid = 1  cmd =  0  opa = 249 opb = 192  ce = 1 cin = 0
#  [205] COMPARE RUN PHASE res = 502 oflow = 0  cout = 1 g = 0  l = 0 e = 0 err =0
# UVM_INFO alu_scoreboard.sv(65) @ 205: uvm_test_top.env.scb_h [SEQUENCE_MISMATCHED] Mismatched
# UVM_INFO alu_scoreboard.sv(66) @ 205: uvm_test_top.env.scb_h [MISMATCH] mismatch count = 7
# UVM_INFO alu_ip_monitor.sv(47) @ 215: uvm_test_top.env.act_h.mon_ip [IP MON] [215]  mode = 1 ip_valid = 3  cmd =  0  opa = 249 opb = 192  ce = 1 cin = 0
# UVM_INFO alu_driver.sv(69) @ 225: uvm_test_top.env.act_h.drv [DRIVER]  [225] mode = 1 ip_valid = 0  cmd =  0  opa = 165 opb = 218 delay =  6  ce = 1 cin = 0
# UVM_INFO alu_op_monitor.sv(48) @ 225: uvm_test_top.env.pass_h.mon_op [OUTPUT MONITOR]  [225] res = 441 oflow = 0  cout = 1 g = 0  l = 0 e = 0 err =0
#  [225] COMPARE mode = 1 ip_valid = 3  cmd =  0  opa = 249 opb = 192  ce = 1 cin = 0
#  [225] COMPARE RUN PHASE res = 441 oflow = 0  cout = 1 g = 0  l = 0 e = 0 err =0
# UVM_INFO alu_scoreboard.sv(58) @ 225: uvm_test_top.env.scb_h [SEQUENCE_MATCHED] Matched
# UVM_INFO alu_scoreboard.sv(59) @ 225: uvm_test_top.env.scb_h [MATCH] match count = 4
# UVM_INFO alu_ip_monitor.sv(47) @ 235: uvm_test_top.env.act_h.mon_ip [IP MON] [235]  mode = 1 ip_valid = 0  cmd =  0  opa = 165 opb = 218  ce = 1 cin = 0
# UVM_INFO alu_driver.sv(69) @ 245: uvm_test_top.env.act_h.drv [DRIVER]  [245] mode = 1 ip_valid = 3  cmd =  0  opa =  22 opb = 171 delay =  7  ce = 1 cin = 1
# UVM_INFO alu_op_monitor.sv(48) @ 245: uvm_test_top.env.pass_h.mon_op [OUTPUT MONITOR]  [245] res =   0 oflow = 0  cout = 0 g = 0  l = 0 e = 0 err =0
#  [245] COMPARE mode = 1 ip_valid = 0  cmd =  0  opa = 165 opb = 218  ce = 1 cin = 0
#  [245] COMPARE RUN PHASE res =   0 oflow = 0  cout = 0 g = 0  l = 0 e = 0 err =0
# UVM_INFO alu_scoreboard.sv(65) @ 245: uvm_test_top.env.scb_h [SEQUENCE_MISMATCHED] Mismatched
# UVM_INFO alu_scoreboard.sv(66) @ 245: uvm_test_top.env.scb_h [MISMATCH] mismatch count = 8
# UVM_INFO alu_ip_monitor.sv(47) @ 255: uvm_test_top.env.act_h.mon_ip [IP MON] [255]  mode = 1 ip_valid = 3  cmd =  0  opa =  22 opb = 171  ce = 1 cin = 1
# UVM_INFO alu_driver.sv(69) @ 265: uvm_test_top.env.act_h.drv [DRIVER]  [265] mode = 1 ip_valid = 3  cmd =  0  opa =  20 opb = 190 delay =  3  ce = 1 cin = 1
# UVM_INFO alu_op_monitor.sv(48) @ 265: uvm_test_top.env.pass_h.mon_op [OUTPUT MONITOR]  [265] res = 193 oflow = 0  cout = 0 g = 0  l = 0 e = 0 err =0
#  [265] COMPARE mode = 1 ip_valid = 3  cmd =  0  opa =  22 opb = 171  ce = 1 cin = 1
#  [265] COMPARE RUN PHASE res = 193 oflow = 0  cout = 0 g = 0  l = 0 e = 0 err =0
# UVM_INFO alu_scoreboard.sv(58) @ 265: uvm_test_top.env.scb_h [SEQUENCE_MATCHED] Matched
# UVM_INFO alu_scoreboard.sv(59) @ 265: uvm_test_top.env.scb_h [MATCH] match count = 5
# UVM_INFO alu_ip_monitor.sv(47) @ 275: uvm_test_top.env.act_h.mon_ip [IP MON] [275]  mode = 1 ip_valid = 3  cmd =  0  opa =  20 opb = 190  ce = 1 cin = 1
# UVM_INFO alu_driver.sv(69) @ 285: uvm_test_top.env.act_h.drv [DRIVER]  [285] mode = 1 ip_valid = 1  cmd =  0  opa =  74 opb = 157 delay =  0  ce = 1 cin = 1
# UVM_INFO alu_op_monitor.sv(48) @ 285: uvm_test_top.env.pass_h.mon_op [OUTPUT MONITOR]  [285] res = 210 oflow = 0  cout = 0 g = 0  l = 0 e = 0 err =0
#  [285] COMPARE mode = 1 ip_valid = 3  cmd =  0  opa =  20 opb = 190  ce = 1 cin = 1
#  [285] COMPARE RUN PHASE res = 210 oflow = 0  cout = 0 g = 0  l = 0 e = 0 err =0
# UVM_INFO alu_scoreboard.sv(58) @ 285: uvm_test_top.env.scb_h [SEQUENCE_MATCHED] Matched
# UVM_INFO alu_scoreboard.sv(59) @ 285: uvm_test_top.env.scb_h [MATCH] match count = 6
# UVM_INFO alu_ip_monitor.sv(47) @ 295: uvm_test_top.env.act_h.mon_ip [IP MON] [295]  mode = 1 ip_valid = 1  cmd =  0  opa =  74 opb = 157  ce = 1 cin = 1
# UVM_INFO alu_driver.sv(69) @ 305: uvm_test_top.env.act_h.drv [DRIVER]  [305] mode = 1 ip_valid = 3  cmd =  0  opa =  74 opb = 157 delay =  0  ce = 1 cin = 1
# UVM_INFO alu_op_monitor.sv(48) @ 305: uvm_test_top.env.pass_h.mon_op [OUTPUT MONITOR]  [305] res = 264 oflow = 0  cout = 1 g = 0  l = 0 e = 0 err =0
#  [305] COMPARE mode = 1 ip_valid = 1  cmd =  0  opa =  74 opb = 157  ce = 1 cin = 1
#  [305] COMPARE RUN PHASE res = 264 oflow = 0  cout = 1 g = 0  l = 0 e = 0 err =0
# UVM_INFO alu_scoreboard.sv(65) @ 305: uvm_test_top.env.scb_h [SEQUENCE_MISMATCHED] Mismatched
# UVM_INFO alu_scoreboard.sv(66) @ 305: uvm_test_top.env.scb_h [MISMATCH] mismatch count = 9
# UVM_INFO alu_ip_monitor.sv(47) @ 315: uvm_test_top.env.act_h.mon_ip [IP MON] [315]  mode = 1 ip_valid = 3  cmd =  0  opa =  74 opb = 157  ce = 1 cin = 1
# UVM_INFO alu_driver.sv(69) @ 325: uvm_test_top.env.act_h.drv [DRIVER]  [325] mode = 1 ip_valid = 2  cmd =  0  opa = 232 opb = 179 delay =  6  ce = 1 cin = 0
# UVM_INFO alu_op_monitor.sv(48) @ 325: uvm_test_top.env.pass_h.mon_op [OUTPUT MONITOR]  [325] res = 231 oflow = 0  cout = 0 g = 0  l = 0 e = 0 err =0
#  [325] COMPARE mode = 1 ip_valid = 3  cmd =  0  opa =  74 opb = 157  ce = 1 cin = 1
#  [325] COMPARE RUN PHASE res = 231 oflow = 0  cout = 0 g = 0  l = 0 e = 0 err =0
# UVM_INFO alu_scoreboard.sv(58) @ 325: uvm_test_top.env.scb_h [SEQUENCE_MATCHED] Matched
# UVM_INFO alu_scoreboard.sv(59) @ 325: uvm_test_top.env.scb_h [MATCH] match count = 7
# UVM_INFO alu_ip_monitor.sv(47) @ 335: uvm_test_top.env.act_h.mon_ip [IP MON] [335]  mode = 1 ip_valid = 2  cmd =  0  opa = 232 opb = 179  ce = 1 cin = 0
# UVM_INFO alu_driver.sv(69) @ 345: uvm_test_top.env.act_h.drv [DRIVER]  [345] mode = 1 ip_valid = 2  cmd =  0  opa = 232 opb = 179 delay =  6  ce = 1 cin = 1
# UVM_INFO alu_op_monitor.sv(48) @ 345: uvm_test_top.env.pass_h.mon_op [OUTPUT MONITOR]  [345] res = 253 oflow = 0  cout = 0 g = 0  l = 0 e = 0 err =0
#  [345] COMPARE mode = 1 ip_valid = 2  cmd =  0  opa = 232 opb = 179  ce = 1 cin = 0
#  [345] COMPARE RUN PHASE res = 253 oflow = 0  cout = 0 g = 0  l = 0 e = 0 err =0
# UVM_INFO alu_scoreboard.sv(65) @ 345: uvm_test_top.env.scb_h [SEQUENCE_MISMATCHED] Mismatched
# UVM_INFO alu_scoreboard.sv(66) @ 345: uvm_test_top.env.scb_h [MISMATCH] mismatch count = 10
# UVM_INFO alu_ip_monitor.sv(47) @ 355: uvm_test_top.env.act_h.mon_ip [IP MON] [355]  mode = 1 ip_valid = 2  cmd =  0  opa = 232 opb = 179  ce = 1 cin = 1
# UVM_INFO alu_driver.sv(69) @ 365: uvm_test_top.env.act_h.drv [DRIVER]  [365] mode = 1 ip_valid = 2  cmd =  0  opa = 232 opb = 179 delay =  6  ce = 1 cin = 0
# UVM_INFO alu_op_monitor.sv(48) @ 365: uvm_test_top.env.pass_h.mon_op [OUTPUT MONITOR]  [365] res = 253 oflow = 0  cout = 0 g = 0  l = 0 e = 0 err =0
#  [365] COMPARE mode = 1 ip_valid = 2  cmd =  0  opa = 232 opb = 179  ce = 1 cin = 1
#  [365] COMPARE RUN PHASE res = 253 oflow = 0  cout = 0 g = 0  l = 0 e = 0 err =0
# UVM_INFO alu_scoreboard.sv(65) @ 365: uvm_test_top.env.scb_h [SEQUENCE_MISMATCHED] Mismatched
# UVM_INFO alu_scoreboard.sv(66) @ 365: uvm_test_top.env.scb_h [MISMATCH] mismatch count = 11
